<?xml version="1.0" encoding="UTF-8" standalone="no"?>
<!-- Created with Inkscape (http://www.inkscape.org/) -->

<svg
   xmlns:dc="http://purl.org/dc/elements/1.1/"
   xmlns:cc="http://creativecommons.org/ns#"
   xmlns:rdf="http://www.w3.org/1999/02/22-rdf-syntax-ns#"
   xmlns:svg="http://www.w3.org/2000/svg"
   xmlns="http://www.w3.org/2000/svg"
   xmlns:xlink="http://www.w3.org/1999/xlink"
   xmlns:sodipodi="http://sodipodi.sourceforge.net/DTD/sodipodi-0.dtd"
   xmlns:inkscape="http://www.inkscape.org/namespaces/inkscape"
   width="210mm"
   height="297mm"
   viewBox="0 0 744.09448819 1052.3622047"
   id="svg2"
   version="1.1"
   inkscape:version="0.91 r13725"
   sodipodi:docname="ro-kloub-rotace.svg">
  <defs
     id="defs4">
    <linearGradient
       inkscape:collect="always"
       id="linearGradient8749">
      <stop
         style="stop-color:#ffffff;stop-opacity:1"
         offset="0"
         id="stop8751" />
      <stop
         style="stop-color:#737373;stop-opacity:1"
         offset="1"
         id="stop8753" />
    </linearGradient>
    <marker
       inkscape:stockid="Arrow2Mend"
       orient="auto"
       refY="0.0"
       refX="0.0"
       id="Arrow2Mend"
       style="overflow:visible;"
       inkscape:isstock="true">
      <path
         id="path4256"
         style="fill-rule:evenodd;stroke-width:0.625;stroke-linejoin:round;stroke:#000000;stroke-opacity:1;fill:#000000;fill-opacity:1"
         d="M 8.7185878,4.0337352 L -2.2072895,0.016013256 L 8.7185884,-4.0017078 C 6.9730900,-1.6296469 6.9831476,1.6157441 8.7185878,4.0337352 z "
         transform="scale(0.6) rotate(180) translate(0,0)" />
    </marker>
    <marker
       inkscape:stockid="Arrow1Mend"
       orient="auto"
       refY="0.0"
       refX="0.0"
       id="Arrow1Mend"
       style="overflow:visible;"
       inkscape:isstock="true">
      <path
         id="path4238"
         d="M 0.0,0.0 L 5.0,-5.0 L -12.5,0.0 L 5.0,5.0 L 0.0,0.0 z "
         style="fill-rule:evenodd;stroke:#000000;stroke-width:1pt;stroke-opacity:1;fill:#000000;fill-opacity:1"
         transform="scale(0.4) rotate(180) translate(10,0)" />
    </marker>
    <marker
       inkscape:isstock="true"
       style="overflow:visible;"
       id="marker6063"
       refX="0.0"
       refY="0.0"
       orient="auto"
       inkscape:stockid="Arrow1Lend">
      <path
         transform="scale(0.8) rotate(180) translate(12.5,0)"
         style="fill-rule:evenodd;stroke:#000000;stroke-width:1pt;stroke-opacity:1;fill:#000000;fill-opacity:1"
         d="M 0.0,0.0 L 5.0,-5.0 L -12.5,0.0 L 5.0,5.0 L 0.0,0.0 z "
         id="path6065" />
    </marker>
    <marker
       inkscape:stockid="Arrow1Lend"
       orient="auto"
       refY="0.0"
       refX="0.0"
       id="marker5551"
       style="overflow:visible;"
       inkscape:isstock="true">
      <path
         id="path5553"
         d="M 0.0,0.0 L 5.0,-5.0 L -12.5,0.0 L 5.0,5.0 L 0.0,0.0 z "
         style="fill-rule:evenodd;stroke:#0a5e00;stroke-width:1pt;stroke-opacity:1;fill:#0a5e00;fill-opacity:1"
         transform="scale(0.8) rotate(180) translate(12.5,0)" />
    </marker>
    <marker
       inkscape:isstock="true"
       style="overflow:visible;"
       id="marker4831"
       refX="0.0"
       refY="0.0"
       orient="auto"
       inkscape:stockid="Arrow1Lend"
       inkscape:collect="always">
      <path
         transform="scale(0.8) rotate(180) translate(12.5,0)"
         style="fill-rule:evenodd;stroke:#140073;stroke-width:1pt;stroke-opacity:1;fill:#140073;fill-opacity:1"
         d="M 0.0,0.0 L 5.0,-5.0 L -12.5,0.0 L 5.0,5.0 L 0.0,0.0 z "
         id="path4833" />
    </marker>
    <marker
       inkscape:stockid="Arrow1Lend"
       orient="auto"
       refY="0.0"
       refX="0.0"
       id="Arrow1Lend"
       style="overflow:visible;"
       inkscape:isstock="true"
       inkscape:collect="always">
      <path
         id="path4232"
         d="M 0.0,0.0 L 5.0,-5.0 L -12.5,0.0 L 5.0,5.0 L 0.0,0.0 z "
         style="fill-rule:evenodd;stroke:#6d0000;stroke-width:1pt;stroke-opacity:1;fill:#6d0000;fill-opacity:1"
         transform="scale(0.8) rotate(180) translate(12.5,0)" />
    </marker>
    <marker
       inkscape:stockid="Arrow2Mend"
       orient="auto"
       refY="0"
       refX="0"
       id="Arrow2Mend-8"
       style="overflow:visible"
       inkscape:isstock="true">
      <path
         inkscape:connector-curvature="0"
         id="path4256-6"
         style="fill:#000000;fill-opacity:1;fill-rule:evenodd;stroke:#000000;stroke-width:0.625;stroke-linejoin:round;stroke-opacity:1"
         d="M 8.7185878,4.0337352 -2.2072895,0.01601326 8.7185884,-4.0017078 c -1.7454984,2.3720609 -1.7354408,5.6174519 -6e-7,8.035443 z"
         transform="scale(-0.6,-0.6)" />
    </marker>
    <marker
       inkscape:stockid="Arrow2Mend"
       orient="auto"
       refY="0"
       refX="0"
       id="Arrow2Mend-2"
       style="overflow:visible"
       inkscape:isstock="true">
      <path
         inkscape:connector-curvature="0"
         id="path4256-4"
         style="fill:#000000;fill-opacity:1;fill-rule:evenodd;stroke:#000000;stroke-width:0.625;stroke-linejoin:round;stroke-opacity:1"
         d="M 8.7185878,4.0337352 -2.2072895,0.01601326 8.7185884,-4.0017078 c -1.7454984,2.3720609 -1.7354408,5.6174519 -6e-7,8.035443 z"
         transform="scale(-0.6,-0.6)" />
    </marker>
    <radialGradient
       inkscape:collect="always"
       xlink:href="#linearGradient8749"
       id="radialGradient8755"
       cx="310.33362"
       cy="284.10208"
       fx="310.33362"
       fy="284.10208"
       r="7.5710678"
       gradientUnits="userSpaceOnUse"
       gradientTransform="matrix(0.77439422,-0.42374772,0.40700342,0.74379421,-45.366539,204.5569)" />
  </defs>
  <sodipodi:namedview
     id="base"
     pagecolor="#ffffff"
     bordercolor="#666666"
     borderopacity="1.0"
     inkscape:pageopacity="0.0"
     inkscape:pageshadow="2"
     inkscape:zoom="1.979899"
     inkscape:cx="170.97468"
     inkscape:cy="780.05618"
     inkscape:document-units="px"
     inkscape:current-layer="layer1"
     showgrid="false"
     inkscape:window-width="1920"
     inkscape:window-height="1018"
     inkscape:window-x="-8"
     inkscape:window-y="-8"
     inkscape:window-maximized="1" />
  <metadata
     id="metadata7">
    <rdf:RDF>
      <cc:Work
         rdf:about="">
        <dc:format>image/svg+xml</dc:format>
        <dc:type
           rdf:resource="http://purl.org/dc/dcmitype/StillImage" />
        <dc:title></dc:title>
      </cc:Work>
    </rdf:RDF>
  </metadata>
  <g
     inkscape:label="Layer 1"
     inkscape:groupmode="layer"
     id="layer1">
    <text
       xml:space="preserve"
       style="font-style:normal;font-weight:normal;font-size:17.5px;line-height:125%;font-family:Sans;letter-spacing:0px;word-spacing:0px;fill:#000000;fill-opacity:1;stroke:none;stroke-width:1px;stroke-linecap:butt;stroke-linejoin:miter;stroke-opacity:1"
       x="263.64981"
       y="308.88992"
       id="text6015"
       sodipodi:linespacing="125%"><tspan
         sodipodi:role="line"
         id="tspan6017"
         x="263.64981"
         y="308.88992" /></text>
    <g
       id="g8851">
      <g
         style="opacity:0.695"
         id="g8845">
        <path
           style="fill:#e6e6e6;fill-rule:evenodd;stroke:#797979;stroke-width:1px;stroke-linecap:butt;stroke-linejoin:bevel;stroke-opacity:1"
           d="m 310.66576,286.01095 -143.5611,-2.25762 2.05575,-22.51599 z"
           id="path4151-1-8"
           inkscape:connector-curvature="0"
           inkscape:transform-center-x="9.1131341"
           inkscape:transform-center-y="-85.288392"
           sodipodi:nodetypes="cccc" />
        <path
           style="fill:#999999;fill-rule:evenodd;stroke:#797979;stroke-width:1px;stroke-linecap:butt;stroke-linejoin:miter;stroke-opacity:1"
           d="M 169.95411,303.53759 310.66576,286.01095 167.26635,283.96001 Z"
           id="path4153-3-0"
           inkscape:connector-curvature="0"
           inkscape:transform-center-x="-5.6603459"
           inkscape:transform-center-y="-85.414662"
           sodipodi:nodetypes="cccc" />
        <path
           sodipodi:nodetypes="cccc"
           style="fill:#cccccc;fill-rule:evenodd;stroke:#797979;stroke-width:1px;stroke-linecap:butt;stroke-linejoin:bevel;stroke-opacity:1"
           d="m 150.95725,283.7669 18.79018,19.8431 -2.54225,-19.81166 z"
           id="path4155-9-2"
           inkscape:connector-curvature="0"
           inkscape:transform-center-x="-11.342456"
           inkscape:transform-center-y="-10.158292" />
        <path
           sodipodi:nodetypes="cccc"
           style="fill:#f9f9f9;fill-rule:evenodd;stroke:#797979;stroke-width:1px;stroke-linecap:butt;stroke-linejoin:bevel;stroke-opacity:1"
           d="m 169.17628,261.19657 -18.08987,22.83303 16.02949,-0.14198 z"
           id="path4157-1-4"
           inkscape:connector-curvature="0"
           inkscape:transform-center-x="9.2394041"
           inkscape:transform-center-y="-7.1278371" />
      </g>
      <circle
         r="7.0710678"
         cy="285.75113"
         cx="311.78989"
         id="path4211"
         style="opacity:1;fill:url(#radialGradient8755);fill-opacity:1;fill-rule:nonzero;stroke:#6f6f6f;stroke-width:1;stroke-linecap:square;stroke-linejoin:bevel;stroke-miterlimit:4;stroke-dasharray:none;stroke-dashoffset:0;stroke-opacity:1" />
      <g
         style="stroke:#797979;stroke-opacity:1"
         id="g8698">
        <path
           style="fill:#f9f9f9;fill-rule:evenodd;stroke:#797979;stroke-width:1px;stroke-linecap:butt;stroke-linejoin:miter;stroke-opacity:1"
           d="m 305.46962,125.38249 11.06731,145.91033 -28.23508,-1.9495 z"
           id="path4151-1"
           inkscape:connector-curvature="0"
           inkscape:transform-center-x="9.1131341"
           inkscape:transform-center-y="-85.288392" />
        <path
           style="fill:#b3b3b3;fill-rule:evenodd;stroke:#797979;stroke-width:1px;stroke-linecap:butt;stroke-linejoin:miter;stroke-opacity:1"
           d="m 333.95179,264.29152 -28.48217,-138.90903 11.0757,145.65793 z"
           id="path4153-3"
           inkscape:connector-curvature="0"
           inkscape:transform-center-x="-5.6603459"
           inkscape:transform-center-y="-85.414662" />
        <path
           sodipodi:nodetypes="cccc"
           style="fill:#666666;fill-rule:evenodd;stroke:#797979;stroke-width:1px;stroke-linecap:butt;stroke-linejoin:miter;stroke-opacity:1"
           d="m 311.10918,283.72187 23.09502,-19.42196 -17.91127,6.73211 z"
           id="path4155-9"
           inkscape:connector-curvature="0"
           inkscape:transform-center-x="-11.342456"
           inkscape:transform-center-y="-10.158292" />
        <path
           sodipodi:nodetypes="cccc"
           style="fill:#cccccc;fill-rule:evenodd;stroke:#797979;stroke-width:1px;stroke-linecap:butt;stroke-linejoin:miter;stroke-opacity:1"
           d="m 288.09542,269.41888 22.98233,14.07363 5.21517,-12.46049 z"
           id="path4157-1"
           inkscape:connector-curvature="0"
           inkscape:transform-center-x="9.2394041"
           inkscape:transform-center-y="-7.1278371" />
      </g>
      <path
         inkscape:connector-curvature="0"
         id="path4223"
         d="m 320.76404,287.63612 54.54824,5.05076"
         style="fill:none;fill-rule:evenodd;stroke:#6d0000;stroke-width:1px;stroke-linecap:butt;stroke-linejoin:miter;stroke-opacity:1;marker-end:url(#Arrow1Lend)" />
      <path
         sodipodi:nodetypes="cc"
         style="fill:none;fill-rule:evenodd;stroke:#140073;stroke-width:1px;stroke-linecap:butt;stroke-linejoin:miter;stroke-opacity:1;marker-end:url(#marker4831)"
         d="m 303.55084,289.65643 -34.85026,12.6269"
         id="path4829"
         inkscape:connector-curvature="0" />
      <path
         inkscape:connector-curvature="0"
         id="path5549"
         d="m 311.63206,276.05998 -2.0203,-59.09393"
         style="fill:none;fill-rule:evenodd;stroke:#0a5e00;stroke-width:1px;stroke-linecap:butt;stroke-linejoin:miter;stroke-opacity:1;marker-end:url(#marker5551)"
         sodipodi:nodetypes="cc" />
      <path
         sodipodi:nodetypes="csc"
         inkscape:connector-curvature="0"
         id="path6055"
         d="m 363.65492,273.02952 c -23.24973,0.87735 -23.25835,25.3768 -11.60777,31.80351 1.76355,0.97281 7.83486,2.54167 10.09254,2.54167"
         style="fill:none;fill-rule:evenodd;stroke:#000000;stroke-width:1px;stroke-linecap:butt;stroke-linejoin:miter;stroke-opacity:1;marker-end:url(#Arrow2Mend)" />
      <path
         sodipodi:nodetypes="csc"
         inkscape:connector-curvature="0"
         id="path6055-9"
         d="m 288.20789,312.68453 c 12.46249,-19.64704 -7.71143,-33.54798 -19.61189,-27.5967 -1.80137,0.90085 -6.53664,5.01173 -7.81699,6.87126"
         style="fill:none;fill-rule:evenodd;stroke:#000000;stroke-width:1px;stroke-linecap:butt;stroke-linejoin:miter;stroke-opacity:1;marker-end:url(#Arrow2Mend-8)" />
      <path
         sodipodi:nodetypes="csc"
         inkscape:connector-curvature="0"
         id="path6055-4"
         d="m 292.94717,240.33587 c 1.14721,14.21235 24.67461,17.1208 31.2044,9.12985 5.33777,-6.53219 3.28579,-7.06755 3.17365,-9.32244"
         style="fill:none;fill-rule:evenodd;stroke:#000000;stroke-width:1px;stroke-linecap:butt;stroke-linejoin:miter;stroke-opacity:1;marker-end:url(#Arrow2Mend-2)" />
      <text
         sodipodi:linespacing="125%"
         id="text8757"
         y="284.62595"
         x="365.69556"
         style="font-style:normal;font-weight:normal;font-size:15px;line-height:125%;font-family:Sans;letter-spacing:0px;word-spacing:0px;fill:#000000;fill-opacity:1;stroke:none;stroke-width:1px;stroke-linecap:butt;stroke-linejoin:miter;stroke-opacity:1"
         xml:space="preserve"><tspan
           y="284.62595"
           x="365.69556"
           id="tspan8759"
           sodipodi:role="line">x</tspan></text>
      <text
         sodipodi:linespacing="125%"
         id="text8761"
         y="315.43561"
         x="273.14474"
         style="font-style:normal;font-weight:normal;font-size:15px;line-height:125%;font-family:Sans;letter-spacing:0px;word-spacing:0px;fill:#000000;fill-opacity:1;stroke:none;stroke-width:1px;stroke-linecap:butt;stroke-linejoin:miter;stroke-opacity:1"
         xml:space="preserve"><tspan
           y="315.43561"
           x="273.14474"
           id="tspan8763"
           sodipodi:role="line">z</tspan></text>
      <text
         sodipodi:linespacing="125%"
         id="text8765"
         y="234.01682"
         x="293.995"
         style="font-style:normal;font-weight:normal;font-size:15px;line-height:125%;font-family:Sans;letter-spacing:0px;word-spacing:0px;fill:#000000;fill-opacity:1;stroke:none;stroke-width:1px;stroke-linecap:butt;stroke-linejoin:miter;stroke-opacity:1"
         xml:space="preserve"><tspan
           y="234.01682"
           x="293.995"
           id="tspan8767"
           sodipodi:role="line">y</tspan></text>
    </g>
  </g>
</svg>
