\relax 
\catcode`"\active
\catcode`-\active
\select@language{czech}
\@writefile{toc}{\select@language{czech}}
\@writefile{lof}{\select@language{czech}}
\@writefile{lot}{\select@language{czech}}
\@writefile{toc}{\contentsline {chapter}{\numberline {1}\IeC {\'U}vod}{1}}
\@writefile{lof}{\addvspace {10\p@ }}
\@writefile{lot}{\addvspace {10\p@ }}
\citation{Blum1967}
\@writefile{toc}{\contentsline {chapter}{\numberline {2}Metody extrakce kostry}{3}}
\@writefile{lof}{\addvspace {10\p@ }}
\@writefile{lot}{\addvspace {10\p@ }}
\newlabel{sec:met}{{2}{3}}
\@writefile{toc}{\contentsline {section}{\numberline {2.1}Medial axis transform}{3}}
\@writefile{lof}{\contentsline {figure}{\numberline {2.1}{\ignorespaces Uk\IeC {\'a}zka st\IeC {\v r}edn\IeC {\'\i } osy dvourozm\IeC {\v e}rn\IeC {\'e}ho objektu (vyzna\IeC {\v c}ena p\IeC {\v r}eru\IeC {\v s}ovan\IeC {\v e}).}}{3}}
\newlabel{fig:ma-example}{{2.1}{3}}
\newlabel{eq:ma-formulace}{{2.2}{4}}
\@writefile{lof}{\contentsline {figure}{\numberline {2.4}{\ignorespaces Medial axis transform, ilustrace propagace ud\IeC {\'a}losti v~\IeC {\v c}ase. Vlevo se nach\IeC {\'a}z\IeC {\'\i } p\IeC {\r u}vodn\IeC {\'\i } objekt, vpravo objekt s~v\IeC {\'y}slednou st\IeC {\v r}edn\IeC {\'\i } osou. V~m\IeC {\'\i }stech nespojitosti vznik\IeC {\'a} st\IeC {\v r}edn\IeC {\'\i } osa objektu.}}{4}}
\newlabel{fig:ma-casove}{{2.4}{4}}
\citation{Amenta00}
\citation{Au2008}
\@writefile{toc}{\contentsline {section}{\numberline {2.2}Metody zalo\IeC {\v z}en\IeC {\'e} na geometrii a~topologii}{5}}
\@writefile{toc}{\contentsline {subsection}{\numberline {2.2.1}Smr\IeC {\v s}t\IeC {\v e}n\IeC {\'\i } modelu s~n\IeC {\'a}slednou redukc\IeC {\'\i } geometrie}{5}}
\newlabel{sec:met-au}{{2.2.1}{5}}
\newlabel{subsec:met-au}{{2.2.1}{5}}
\@writefile{toc}{\contentsline {subsubsection}{Smr\IeC {\v s}t\IeC {\v e}n\IeC {\'\i } s\IeC {\'\i }t\IeC {\v e}}{5}}
\newlabel{eq:me-smrsteni}{{2.6}{6}}
\@writefile{lof}{\contentsline {figure}{\numberline {2.8}{\ignorespaces Smr\IeC {\v s}\IeC {\v t}ov\IeC {\'a}n\IeC {\'\i } modelu. Konektivita p\IeC {\r u}vodn\IeC {\'\i } geometrie je zachov\IeC {\'a}na.}}{6}}
\newlabel{fig:me-smrsteni}{{2.8}{6}}
\@writefile{toc}{\contentsline {subsubsection}{Redukce geometrie}{7}}
\@writefile{lof}{\contentsline {figure}{\numberline {2.10}{\ignorespaces Half-edge collapse. Vrchol $\mathbf  v_i$ je ztoto\IeC {\v z}n\IeC {\v e}n s~$\mathbf  v_j$, hrana $\mathbf  e$ je odstran\IeC {\v e}na spolu s~inciduj\IeC {\'\i }c\IeC {\'\i }mi troj\IeC {\'u}heln\IeC {\'\i }ky. Slu\IeC {\v c}ov\IeC {\'a}n\IeC {\'\i } hran je pops\IeC {\'a}no v~obr\IeC {\'a}zku pomoc\IeC {\'\i } \IeC {\v c}\IeC {\'\i }slov\IeC {\'a}n\IeC {\'\i } v~obr\IeC {\'a}zku. }}{7}}
\newlabel{fig:me-edgecollapse}{{2.10}{7}}
\@writefile{lof}{\contentsline {figure}{\numberline {2.15}{\ignorespaces Zn\IeC {\'a}zorn\IeC {\v e}n\IeC {\'\i } vektorov\IeC {\'e}ho sou\IeC {\v c}inu $\mathbf  b = \mathbf  a \times \mathbf  v_i$, bod~$\mathbf  O$ p\IeC {\v r}edstavuje po\IeC {\v c}\IeC {\'a}tek soustavy sou\IeC {\v r}adnic. Vektor $\mathbf  b$ je kolm\IeC {\'y} k~$\mathbf  a$~i~$\mathbf  v_i$.}}{8}}
\newlabel{fig:me-vektorovysoucin}{{2.15}{8}}
\citation{Ma2014}
\@writefile{toc}{\contentsline {subsubsection}{Z\IeC {\'a}v\IeC {\v e}re\IeC {\v c}n\IeC {\'a} \IeC {\'u}prava pozic}{9}}
\@writefile{toc}{\contentsline {subsubsection}{Klady a~z\IeC {\'a}pory metody}{9}}
\citation{Ma2012}
\@writefile{toc}{\contentsline {subsection}{\numberline {2.2.2}Tvorba kostry spojov\IeC {\'a}n\IeC {\'\i }m v\IeC {\'y}znamn\IeC {\'y}ch bod\IeC {\r u}}{10}}
\newlabel{subsec:met-ma14}{{2.2.2}{10}}
\newlabel{subsec:met-au}{{2.2.2}{10}}
\@writefile{toc}{\contentsline {subsubsection}{P\IeC {\v r}edzpracov\IeC {\'a}n\IeC {\'\i } dat}{10}}
\@writefile{lof}{\contentsline {figure}{\numberline {2.19}{\ignorespaces Uk\IeC {\'a}zka te\IeC {\v c}n\IeC {\'y}ch koul\IeC {\'\i } $B_i$ na \IeC {\v c}\IeC {\'a}sti s\IeC {\'\i }t\IeC {\v e} (vrcholech $\mathbf  v_i$), $m$ zna\IeC {\v c}\IeC {\'\i } odhad st\IeC {\v r}edn\IeC {\'\i } osy. St\IeC {\v r}ed koule le\IeC {\v z}\IeC {\'\i } na v~p\IeC {\v r}\IeC {\'\i }slu\IeC {\v s}n\IeC {\'e}m vrcholu st\IeC {\v r}edn\IeC {\'\i } osy (kter\IeC {\'y} odpov\IeC {\'\i }d\IeC {\'a} p\IeC {\'o}lu Voronoi diagramu), polom\IeC {\v e}r je volen tak, aby vrchol $\mathbf  v_i$ le\IeC {\v z}el na jej\IeC {\'\i }m povrchu. Pro n\IeC {\'a}zornost zn\IeC {\'a}zorn\IeC {\v e}no ve dvourozm\IeC {\v e}rn\IeC {\'e} analogii. }}{10}}
\newlabel{fig:me-tangentballs}{{2.19}{10}}
\@writefile{toc}{\contentsline {subsubsection}{Hled\IeC {\'a}n\IeC {\'\i } v\IeC {\'y}zna\IeC {\v c}n\IeC {\'y}ch vrchol\IeC {\r u}}{11}}
\@writefile{toc}{\contentsline {subsubsection}{Tvorba kostry}{11}}
\@writefile{toc}{\contentsline {subsubsection}{Z\IeC {\'a}v\IeC {\v e}re\IeC {\v c}n\IeC {\'e} \IeC {\'u}pravy}{12}}
\@writefile{toc}{\contentsline {subsubsection}{Klady a~z\IeC {\'a}pory metody}{12}}
\citation{Ma2002}
\citation{Au2008}
\@writefile{toc}{\contentsline {section}{\numberline {2.3}Volumetrick\IeC {\'e} metody}{13}}
\@writefile{lof}{\contentsline {figure}{\numberline {2.20}{\ignorespaces Uk\IeC {\'a}zka iterac\IeC {\'\i } zten\IeC {\v c}ov\IeC {\'a}n\IeC {\'\i } modelu reprezentovan\IeC {\'e}ho voxely. Zdroj: {\relax \fontsize  {10.95}{13.6}\selectfont  \abovedisplayskip 11\p@ plus3\p@ minus6\p@ \abovedisplayshortskip \z@ plus3\p@ \belowdisplayshortskip 6.5\p@ plus3.5\p@ minus3\p@ \def \leftmargin \leftmargini \parsep 5\p@ plus2.5\p@ minus\p@ \topsep 10\p@ plus4\p@ minus6\p@ \itemsep 5\p@ plus2.5\p@ minus\p@ {\leftmargin \leftmargini \topsep 9\p@ plus3\p@ minus5\p@ \parsep 4.5\p@ plus2\p@ minus\p@ \itemsep \parsep }\belowdisplayskip \abovedisplayskip \texttt  {http://csvision.swan.ac.uk/index.php?n=Site.BloodFlowModelling}}, cit.~6.~2015.}}{13}}
\newlabel{fig:me-smrsteni}{{2.20}{13}}
\citation{Straka2011}
\citation{Rodriguez2009}
\@writefile{toc}{\contentsline {subsection}{\numberline {2.3.1}Generov\IeC {\'a}n\IeC {\'\i } kostry sn\IeC {\'\i }man\IeC {\'e}ho \IeC {\v c}lov\IeC {\v e}ka v~re\IeC {\'a}ln\IeC {\'e}m \IeC {\v c}ase}{14}}
\newlabel{sec:met-straka}{{2.3.1}{14}}
\newlabel{subsec:met-straka}{{2.3.1}{14}}
\citation{Yoshizawa07}
\citation{Amenta00}
\@writefile{toc}{\contentsline {section}{\numberline {2.4}P\IeC {\v r}\IeC {\'\i }buzn\IeC {\'e} oblasti}{15}}
\@writefile{lof}{\contentsline {figure}{\numberline {2.22}{\ignorespaces Uk\IeC {\'a}zka v\IeC {\'y}sledk\IeC {\r u} metody Yoshizawa~et~al. Uvnit\IeC {\v r} modelu se nach\IeC {\'a}z\IeC {\'\i } vygenerovan\IeC {\'y} skelet, kter\IeC {\'y} p\IeC {\v r}en\IeC {\'a}\IeC {\v s}\IeC {\'\i } deformaci ru\IeC {\v c}n\IeC {\v e} vytvo\IeC {\v r}en\IeC {\'e} jednorozm\IeC {\v e}rn\IeC {\'e} kostry na povrch t\IeC {\v e}lesa.}}{15}}
\newlabel{fig:me-smrsteni}{{2.22}{15}}
\citation{Zara04}
\citation{Golias1999}
\@writefile{toc}{\contentsline {chapter}{\numberline {3}P\IeC {\v r}\IeC {\'\i }m\IeC {\'a} a~inverzn\IeC {\'\i } kinematika}{17}}
\@writefile{lof}{\addvspace {10\p@ }}
\@writefile{lot}{\addvspace {10\p@ }}
\newlabel{ch:prima-a-inverzni-kinematika}{{3}{17}}
\@writefile{lof}{\contentsline {figure}{\numberline {3.1}{\ignorespaces P\IeC {\v r}\IeC {\'\i }klad segmentov\IeC {\'e} struktury se dv\IeC {\v e}ma stupni volnosti. Koncov\IeC {\'y} efektor je ozna\IeC {\v c}en p\IeC {\'\i }smenem~X.}}{17}}
\newlabel{fig:ik-stupnevolnosti}{{3.1}{17}}
\@writefile{toc}{\contentsline {section}{\numberline {3.1}P\IeC {\v r}\IeC {\'\i }m\IeC {\'a} kinematika}{18}}
\@writefile{toc}{\contentsline {section}{\numberline {3.2}Inverzn\IeC {\'\i } kinematika}{18}}
\citation{Meredith2004}
\@writefile{toc}{\contentsline {subsection}{\numberline {3.2.1}Linearizace pomoc\IeC {\'\i } jakobi\IeC {\'a}nu}{19}}
\@writefile{lof}{\contentsline {figure}{\numberline {3.5}{\ignorespaces Singul\IeC {\'a}rn\IeC {\'\i } p\IeC {\v r}\IeC {\'\i }pady. Vlevo dv\IeC {\v e} \IeC {\v r}e\IeC {\v s}en\IeC {\'\i }, vpravo \IeC {\'u}loha ne\IeC {\v r}e\IeC {\v s}iteln\IeC {\'a}.}}{19}}
\newlabel{fig:ik-moznareseni}{{3.5}{19}}
\citation{Wang91}
\@writefile{toc}{\contentsline {subsection}{\numberline {3.2.2}Cyclic coordinate descent}{20}}
\citation{Denavit1955}
\citation{Zara04}
\@writefile{lof}{\contentsline {figure}{\numberline {3.8}{\ignorespaces Uk\IeC {\'a}zka jedn\IeC {\'e} iterace metody cyclic coordinate descent.}}{21}}
\newlabel{fig:ik-ccd}{{3.8}{21}}
\@writefile{toc}{\contentsline {subsection}{\numberline {3.2.3}Obohacen\IeC {\'\i } o~posuvn\IeC {\'a} spojen\IeC {\'\i }}{21}}
\@writefile{toc}{\contentsline {chapter}{\numberline {4}N\IeC {\'a}vrh vlastn\IeC {\'\i } metody}{22}}
\@writefile{lof}{\addvspace {10\p@ }}
\@writefile{lot}{\addvspace {10\p@ }}
\newlabel{ch:navrh}{{4}{22}}
\@writefile{toc}{\contentsline {section}{\numberline {4.1}Generov\IeC {\'a}n\IeC {\'\i } kostry}{22}}
\@writefile{toc}{\contentsline {section}{\numberline {4.2}Interaktivn\IeC {\'\i } uk\IeC {\'a}zka}{23}}
\@writefile{toc}{\contentsline {chapter}{\numberline {5}Podrobn\IeC {\'y} rozbor metody}{24}}
\@writefile{lof}{\addvspace {10\p@ }}
\@writefile{lot}{\addvspace {10\p@ }}
\@writefile{toc}{\contentsline {section}{\numberline {5.1}Vstupn\IeC {\'\i } data}{24}}
\@writefile{lof}{\contentsline {figure}{\numberline {5.1}{\ignorespaces Zn\IeC {\'a}zorn\IeC {\v e}n\IeC {\'\i } rotac\IeC {\'\i } kosti podle os $x$, $y$, $z$. Pou\IeC {\v z}it\IeC {\'y} lok\IeC {\'a}ln\IeC {\'\i } syst\IeC {\'e}m je pravoto\IeC {\v c}iv\IeC {\'y}, sm\IeC {\v e}r osy $y$ je ztoto\IeC {\v z}n\IeC {\v e}n se sm\IeC {\v e}rem kosti.}}{24}}
\newlabel{fig:ro-kloub-rotace}{{5.1}{24}}
\@writefile{lof}{\contentsline {figure}{\numberline {5.2}{\ignorespaces Referen\IeC {\v c}n\IeC {\'\i } kostra, pro ilustraci zn\IeC {\'a}zorn\IeC {\v e}n i~obrys \IeC {\v c}lov\IeC {\v e}ka.}}{25}}
\newlabel{fig:ro-ref-kostra}{{5.2}{25}}
\@writefile{toc}{\contentsline {section}{\numberline {5.2}Generov\IeC {\'a}n\IeC {\'\i } prozat\IeC {\'\i }mn\IeC {\'\i } kostry}{25}}
\newlabel{sec:gen-proz-kostr}{{5.2}{25}}
\@writefile{toc}{\contentsline {section}{\numberline {5.3}Vytvo\IeC {\v r}en\IeC {\'\i } anima\IeC {\v c}n\IeC {\'\i } kostry}{26}}
\newlabel{sec:vytv-anim-kostr}{{5.3}{26}}
\@writefile{toc}{\contentsline {subsection}{\numberline {5.3.1}P\IeC {\v r}\IeC {\'\i }pravn\IeC {\'e} kroky a~p\IeC {\v r}i\IeC {\v r}azen\IeC {\'\i } hlavy}{26}}
\@writefile{lof}{\contentsline {figure}{\numberline {5.6}{\ignorespaces Zn\IeC {\'a}zorn\IeC {\v e}n\IeC {\'\i } sjednocen\IeC {\'\i } velikosti a~pozice referen\IeC {\v c}n\IeC {\'\i } a~prozat\IeC {\'\i }mn\IeC {\'\i } kostry. Referen\IeC {\v c}n\IeC {\'\i } kostra m\IeC {\'a} vyzna\IeC {\v c}enou hlavu \IeC {\v c}ern\IeC {\v e}, prozat\IeC {\'\i }mn\IeC {\'\i } b\IeC {\'\i }le. Te\IeC {\v c}kovan\IeC {\v e} jsou vyzna\IeC {\v c}eny obaluj\IeC {\'\i }c\IeC {\'\i } boxy.}}{27}}
\newlabel{fig:ppm-korekce-velikosti-pozice}{{5.6}{27}}
\@writefile{toc}{\contentsline {subsection}{\numberline {5.3.2}P\IeC {\v r}i\IeC {\v r}azen\IeC {\'\i } list\IeC {\r u}}{27}}
\citation{HunWiki}
\@writefile{toc}{\contentsline {subsection}{\numberline {5.3.3}P\IeC {\v r}i\IeC {\v r}azen\IeC {\'\i } vnit\IeC {\v r}n\IeC {\'\i }ch uzl\IeC {\r u}}{28}}
\@writefile{lof}{\contentsline {figure}{\numberline {5.8}{\ignorespaces Pro\IeC {\v r}ez\IeC {\'a}v\IeC {\'a}n\IeC {\'\i } v\IeC {\v e}tv\IeC {\'\i } do\IeC {\v c}asn\IeC {\'e} kostry. Nep\IeC {\v r}i\IeC {\v r}azen\IeC {\'e} listy $L_2$, $L_3$, $L_4$ budou v\IeC {\v c}etn\IeC {\v e} cel\IeC {\'e} v\IeC {\v e}tve z~do\IeC {\v c}asn\IeC {\'e} kostry odstran\IeC {\v e}ny.}}{29}}
\newlabel{fig:ppm-odstraneni-vetvi}{{5.8}{29}}
\@writefile{toc}{\contentsline {subsection}{\numberline {5.3.4}Zkop\IeC {\'\i }rov\IeC {\'a}n\IeC {\'\i } lok\IeC {\'a}ln\IeC {\'\i }ch sou\IeC {\v r}adnicov\IeC {\'y}ch syst\IeC {\'e}m\IeC {\r u}}{30}}
\@writefile{toc}{\contentsline {subsection}{\numberline {5.3.5}Zkop\IeC {\'\i }rov\IeC {\'a}n\IeC {\'\i } limitace pohybu v~kloubech}{30}}
\@writefile{lof}{\contentsline {figure}{\numberline {5.13}{\ignorespaces Zn\IeC {\'a}zorn\IeC {\v e}n\IeC {\'\i } lok\IeC {\'a}ln\IeC {\'\i }ch sou\IeC {\v r}adnicov\IeC {\'y}ch syst\IeC {\'e}m\IeC {\r u} kost\IeC {\'\i }.}}{31}}
\newlabel{fig:ppm-lokalni-system}{{5.13}{31}}
\@writefile{toc}{\contentsline {section}{\numberline {5.4}Interaktivn\IeC {\'\i } deformace}{31}}
\@writefile{toc}{\contentsline {subsection}{\numberline {5.4.1}Inverzn\IeC {\'\i } kinematika}{31}}
\@writefile{lof}{\contentsline {figure}{\numberline {5.14}{\ignorespaces Zn\IeC {\'a}zorn\IeC {\v e}n\IeC {\'\i } rotace kolem lok\IeC {\'a}ln\IeC {\'\i } osy $y$. Bod $X$ p\IeC {\v r}edstavuje pozici koncov\IeC {\'e}ho efektoru, $A$ nov\IeC {\v e} zadanou pozici, $O$ po\IeC {\v c}\IeC {\'a}tek lok\IeC {\'a}ln\IeC {\'\i } soustavy sou\IeC {\v r}adnic. Rovina $\sigma $ zn\IeC {\'a}zor\IeC {\v n}uje rota\IeC {\v c}n\IeC {\'\i } rovinu, $\alpha $ hledan\IeC {\'y} \IeC {\'u}hel rotace. $X'$ je pr\IeC {\r u}m\IeC {\v e}tem koncov\IeC {\'e}ho efektoru $X$ do roviny rotace, $Y'$ pr\IeC {\r u}m\IeC {\v e}tem koncov\IeC {\'e}ho efektoru po proveden\IeC {\'\i } rotace.}}{32}}
\newlabel{fig:ro-ccd-rotace}{{5.14}{32}}
\@writefile{lof}{\contentsline {figure}{\numberline {5.18}{\ignorespaces Zn\IeC {\'a}zorn\IeC {\v e}n\IeC {\'\i } prodlou\IeC {\v z}en\IeC {\'\i } kosti pod\IeC {\'e}l lok\IeC {\'a}ln\IeC {\'\i } osy $y$. Bod $X$ p\IeC {\v r}edstavuje pozici koncov\IeC {\'e}ho efektoru, $A$ nov\IeC {\v e} zadanou pozici, $O$ po\IeC {\v c}\IeC {\'a}tek lok\IeC {\'a}ln\IeC {\'\i } soustavy sou\IeC {\v r}adnic. $X'$ je pr\IeC {\r u}m\IeC {\v e}tem koncov\IeC {\'e}ho efektoru $X$ na lok\IeC {\'a}ln\IeC {\'\i } osu $y$, $A'$ pr\IeC {\r u}m\IeC {\v e}tem zadan\IeC {\'e} pozice.}}{33}}
\newlabel{fig:ro-ccd-prodlouzeni}{{5.18}{33}}
\@writefile{toc}{\contentsline {subsection}{\numberline {5.4.2}Mesh-skinning}{34}}
\@writefile{lof}{\contentsline {figure}{\numberline {5.21}{\ignorespaces Vizualizace vah kost\IeC {\'\i } (ovlivn\IeC {\v e}n\IeC {\'\i } vrcholu danou kost\IeC {\'\i }). Sv\IeC {\v e}tl\IeC {\'a} barva znamen\IeC {\'a} velk\IeC {\'e} ovlivn\IeC {\v e}n\IeC {\'\i }, \IeC {\v c}ern\IeC {\'a} \IeC {\v z}\IeC {\'a}dn\IeC {\'e}. V~m\IeC {\'\i }st\IeC {\v e} kloubu maj\IeC {\'\i } vliv ob\IeC {\v e} kosti.}}{35}}
\newlabel{fig:boneweight}{{5.21}{35}}
\newlabel{eq:impl-skinning-lbs}{{5.22}{35}}
\@writefile{toc}{\contentsline {subsubsection}{V\IeC {\'y}po\IeC {\v c}et vah mesh-skinningu}{35}}
\@writefile{toc}{\contentsline {chapter}{\numberline {6}Implementace demonstra\IeC {\v c}n\IeC {\'\i } aplikace}{37}}
\@writefile{lof}{\addvspace {10\p@ }}
\@writefile{lot}{\addvspace {10\p@ }}
\@writefile{toc}{\contentsline {section}{\numberline {6.1}Pou\IeC {\v z}it\IeC {\'e} knihovny a~jazyk}{37}}
\@writefile{toc}{\contentsline {section}{\numberline {6.2}Form\IeC {\'a}t vstupn\IeC {\'\i }ch dat}{38}}
\@writefile{toc}{\contentsline {subsection}{\numberline {6.2.1}Vzorov\IeC {\'a} kostra}{38}}
\citation{wav15}
\@writefile{toc}{\contentsline {subsection}{\numberline {6.2.2}Troj\IeC {\'u}heln\IeC {\'\i }kov\IeC {\'a} s\IeC {\'\i }\IeC {\v t}}{39}}
\@writefile{toc}{\contentsline {section}{\numberline {6.3}Generov\IeC {\'a}n\IeC {\'\i } kostry}{39}}
\@writefile{toc}{\contentsline {section}{\numberline {6.4}Uk\IeC {\'a}zkov\IeC {\'a} aplikace}{40}}
\@writefile{lof}{\contentsline {figure}{\numberline {6.1}{\ignorespaces Zn\IeC {\'a}zorn\IeC {\v e}n\IeC {\'\i } pipeline demonstra\IeC {\v c}n\IeC {\'\i } aplikace. \IeC {\v S}ed\IeC {\v e} jsou vyzna\IeC {\v c}eny \IeC {\v c}\IeC {\'a}sti implementovan\IeC {\'e} VTK, b\IeC {\'\i }le vlastn\IeC {\'\i } implementace.}}{40}}
\newlabel{fig:impl-pipeline}{{6.1}{40}}
\@writefile{toc}{\contentsline {subsection}{\numberline {6.4.1}Inverzn\IeC {\'\i } kinematika}{41}}
\@writefile{toc}{\contentsline {subsection}{\numberline {6.4.2}Mesh-skinning}{41}}
\@writefile{toc}{\contentsline {subsection}{\numberline {6.4.3}Nastaven\IeC {\'\i }}{41}}
\@writefile{toc}{\contentsline {chapter}{\numberline {7}V\IeC {\'y}sledky}{42}}
\@writefile{lof}{\addvspace {10\p@ }}
\@writefile{lot}{\addvspace {10\p@ }}
\@writefile{toc}{\contentsline {section}{\numberline {7.1}Testovac\IeC {\'\i } modely}{42}}
\newlabel{sec:testovaci-modely}{{7.1}{42}}
\@writefile{lof}{\contentsline {figure}{\numberline {7.1}{\ignorespaces Uk\IeC {\'a}zka vstupn\IeC {\'\i }ch model\IeC {\r u}, zleva {human}, {human-low}, {human-high}.}}{42}}
\newlabel{fig:vysl-modely1}{{7.1}{42}}
\@writefile{lof}{\contentsline {figure}{\numberline {7.2}{\ignorespaces Uk\IeC {\'a}zka vstupn\IeC {\'\i }ch model\IeC {\r u}, zleva {armadillo}, {minotauro}, {stickman}.}}{43}}
\newlabel{fig:vysl-modely2}{{7.2}{43}}
\@writefile{toc}{\contentsline {section}{\numberline {7.2}Nastaven\IeC {\'\i } konstant generov\IeC {\'a}n\IeC {\'\i } kostry}{44}}
\@writefile{toc}{\contentsline {section}{\numberline {7.3}V\IeC {\'y}sledn\IeC {\'a} podoba kostry}{45}}
\@writefile{lof}{\contentsline {figure}{\numberline {7.3}{\ignorespaces Model human ve dvou r\IeC {\r u}zn\IeC {\'y}ch rozli\IeC {\v s}en\IeC {\'\i }ch v~dr\IeC {\'a}t\IeC {\v e}n\IeC {\'e} podob\IeC {\v e} v\IeC {\v c}etn\IeC {\v e} vygenerovan\IeC {\'e} kostry.}}{45}}
\newlabel{fig:human-wireframe}{{7.3}{45}}
\@writefile{lof}{\contentsline {figure}{\numberline {7.4}{\ignorespaces V\IeC {\'y}sledn\IeC {\'e} anima\IeC {\v c}n\IeC {\'\i } kostry model\IeC {\r u} human, human-noise, minotauro (zleva).}}{46}}
\newlabel{fig:vysl-modely-vysledky}{{7.4}{46}}
\@writefile{lof}{\contentsline {figure}{\numberline {7.5}{\ignorespaces V\IeC {\'y}sledn\IeC {\'e} anima\IeC {\v c}n\IeC {\'\i } kostry model\IeC {\r u} stickman, human2 a~armadillo (zleva).}}{47}}
\newlabel{fig:vysl-modely-vysledky2}{{7.5}{47}}
\@writefile{toc}{\contentsline {section}{\numberline {7.4}Doba generov\IeC {\'a}n\IeC {\'\i } kostry}{47}}
\@writefile{lof}{\contentsline {figure}{\numberline {7.6}{\ignorespaces Nam\IeC {\v e}\IeC {\v r}en\IeC {\'e} doby v\IeC {\'y}po\IeC {\v c}tu $T$ v~z\IeC {\'a}vislosti na po\IeC {\v c}tu troj\IeC {\'u}heln\IeC {\'\i }k\IeC {\r u} $F$ v\IeC {\v c}etn\IeC {\v e} kvadratick\IeC {\'e} regresn\IeC {\'\i } funkce $T' = 0.0515435 \cdot 10^{-6} F^2$.}}{48}}
\newlabel{fig:vysl-graf}{{7.6}{48}}
\@writefile{toc}{\contentsline {section}{\numberline {7.5}Pam\IeC {\v e}\IeC {\v t}ov\IeC {\'a} slo\IeC {\v z}itost generov\IeC {\'a}n\IeC {\'\i } kostry}{49}}
\@writefile{toc}{\contentsline {section}{\numberline {7.6}Doba v\IeC {\'y}po\IeC {\v c}tu inverzn\IeC {\'\i } kinematiky}{49}}
\@writefile{lof}{\contentsline {figure}{\numberline {7.7}{\ignorespaces Inverzn\IeC {\'\i } kinematika aplikovan\IeC {\'a} na model human.}}{50}}
\newlabel{fig:vysl-ik-human}{{7.7}{50}}
\@writefile{lof}{\contentsline {figure}{\numberline {7.8}{\ignorespaces Inverzn\IeC {\'\i } kinematika aplikovan\IeC {\'a} na model stickman.}}{50}}
\newlabel{fig:vysl-ik-stickman}{{7.8}{50}}
\@writefile{toc}{\contentsline {section}{\numberline {7.7}Srovn\IeC {\'a}n\IeC {\'\i } s~existuj\IeC {\'\i }c\IeC {\'\i }mi metodami}{50}}
\bibstyle{czechiso}
\bibdata{diplomka}
\@writefile{toc}{\contentsline {chapter}{\numberline {8}Z\IeC {\'a}v\IeC {\v e}r}{52}}
\@writefile{lof}{\addvspace {10\p@ }}
\@writefile{lot}{\addvspace {10\p@ }}
\bibcite{wav15}{{1}{}{{}}{{}}}
\bibcite{HunWiki}{{2}{}{{}}{{}}}
\bibcite{Amenta00}{{3}{}{{}}{{}}}
\bibcite{Au2008}{{4}{}{{}}{{}}}
\bibcite{Zara04}{{5}{}{{}}{{}}}
\bibcite{Blum1967}{{6}{}{{}}{{}}}
\bibcite{Denavit1955}{{7}{}{{}}{{}}}
\bibcite{Golias1999}{{8}{}{{}}{{}}}
\bibcite{Ma2002}{{9}{}{{}}{{}}}
\bibcite{Ma2012}{{10}{}{{}}{{}}}
\bibcite{Ma2014}{{11}{}{{}}{{}}}
\bibcite{Meredith2004}{{12}{}{{}}{{}}}
\bibcite{Rodriguez2009}{{13}{}{{}}{{}}}
\bibcite{Straka2011}{{14}{}{{}}{{}}}
\bibcite{Wang91}{{15}{}{{}}{{}}}
\bibcite{Yoshizawa07}{{16}{}{{}}{{}}}
\@writefile{toc}{\contentsline {chapter}{\numberline {A}P\IeC {\v r}\IeC {\'\i }loha: Obsah CD}{55}}
\@writefile{lof}{\addvspace {10\p@ }}
\@writefile{lot}{\addvspace {10\p@ }}
\@writefile{toc}{\contentsline {chapter}{\numberline {B}P\IeC {\v r}\IeC {\'\i }loha: U\IeC {\v z}ivatelsk\IeC {\'y} manu\IeC {\'a}l}{56}}
\@writefile{lof}{\addvspace {10\p@ }}
\@writefile{lot}{\addvspace {10\p@ }}
\@writefile{toc}{\contentsline {section}{\numberline {B.1}P\IeC {\v r}eklad}{56}}
\@writefile{toc}{\contentsline {section}{\numberline {B.2}Parametry p\IeC {\v r}\IeC {\'\i }kazov\IeC {\'e} \IeC {\v r}\IeC {\'a}dky}{56}}
\@writefile{toc}{\contentsline {section}{\numberline {B.3}Ovl\IeC {\'a}d\IeC {\'a}n\IeC {\'\i } aplikace}{57}}
\providecommand\NAT@force@numbers{}\NAT@force@numbers
