<?xml version="1.0" encoding="UTF-8" standalone="no"?>
<!-- Created with Inkscape (http://www.inkscape.org/) -->

<svg
   xmlns:dc="http://purl.org/dc/elements/1.1/"
   xmlns:cc="http://creativecommons.org/ns#"
   xmlns:rdf="http://www.w3.org/1999/02/22-rdf-syntax-ns#"
   xmlns:svg="http://www.w3.org/2000/svg"
   xmlns="http://www.w3.org/2000/svg"
   xmlns:xlink="http://www.w3.org/1999/xlink"
   xmlns:sodipodi="http://sodipodi.sourceforge.net/DTD/sodipodi-0.dtd"
   xmlns:inkscape="http://www.inkscape.org/namespaces/inkscape"
   width="210mm"
   height="297mm"
   viewBox="0 0 744.09448819 1052.3622047"
   id="svg2"
   version="1.1"
   inkscape:version="0.91pre4 r13712"
   sodipodi:docname="me-edgecollapse.svg">
  <defs
     id="defs4">
    <marker
       inkscape:stockid="Arrow2Lend"
       orient="auto"
       refY="0.0"
       refX="0.0"
       id="marker7036"
       style="overflow:visible;"
       inkscape:isstock="true">
      <path
         id="path7038"
         style="fill-rule:evenodd;stroke-width:0.625;stroke-linejoin:round;stroke:#000000;stroke-opacity:1;fill:#000000;fill-opacity:1"
         d="M 8.7185878,4.0337352 L -2.2072895,0.016013256 L 8.7185884,-4.0017078 C 6.9730900,-1.6296469 6.9831476,1.6157441 8.7185878,4.0337352 z "
         transform="scale(1.1) rotate(180) translate(1,0)" />
    </marker>
    <marker
       inkscape:stockid="Arrow1Lend"
       orient="auto"
       refY="0.0"
       refX="0.0"
       id="marker6990"
       style="overflow:visible;"
       inkscape:isstock="true">
      <path
         id="path6992"
         d="M 0.0,0.0 L 5.0,-5.0 L -12.5,0.0 L 5.0,5.0 L 0.0,0.0 z "
         style="fill-rule:evenodd;stroke:#000000;stroke-width:1pt;stroke-opacity:1;fill:#000000;fill-opacity:1"
         transform="scale(0.8) rotate(180) translate(12.5,0)" />
    </marker>
    <marker
       inkscape:stockid="Arrow1Lend"
       orient="auto"
       refY="0.0"
       refX="0.0"
       id="marker6950"
       style="overflow:visible;"
       inkscape:isstock="true">
      <path
         id="path6952"
         d="M 0.0,0.0 L 5.0,-5.0 L -12.5,0.0 L 5.0,5.0 L 0.0,0.0 z "
         style="fill-rule:evenodd;stroke:#000000;stroke-width:1pt;stroke-opacity:1;fill:#000000;fill-opacity:1"
         transform="scale(0.8) rotate(180) translate(12.5,0)" />
    </marker>
    <marker
       inkscape:stockid="TriangleOutL"
       orient="auto"
       refY="0.0"
       refX="0.0"
       id="TriangleOutL"
       style="overflow:visible"
       inkscape:isstock="true">
      <path
         id="path6524"
         d="M 5.77,0.0 L -2.88,5.0 L -2.88,-5.0 L 5.77,0.0 z "
         style="fill-rule:evenodd;stroke:#000000;stroke-width:1pt;stroke-opacity:1;fill:#000000;fill-opacity:1"
         transform="scale(0.8)" />
    </marker>
    <marker
       inkscape:stockid="Arrow2Lend"
       orient="auto"
       refY="0.0"
       refX="0.0"
       id="Arrow2Lend"
       style="overflow:visible;"
       inkscape:isstock="true">
      <path
         id="path6403"
         style="fill-rule:evenodd;stroke-width:0.625;stroke-linejoin:round;stroke:#000000;stroke-opacity:1;fill:#000000;fill-opacity:1"
         d="M 8.7185878,4.0337352 L -2.2072895,0.016013256 L 8.7185884,-4.0017078 C 6.9730900,-1.6296469 6.9831476,1.6157441 8.7185878,4.0337352 z "
         transform="scale(1.1) rotate(180) translate(1,0)" />
    </marker>
    <marker
       inkscape:stockid="Arrow1Lend"
       orient="auto"
       refY="0.0"
       refX="0.0"
       id="Arrow1Lend"
       style="overflow:visible;"
       inkscape:isstock="true">
      <path
         id="path6385"
         d="M 0.0,0.0 L 5.0,-5.0 L -12.5,0.0 L 5.0,5.0 L 0.0,0.0 z "
         style="fill-rule:evenodd;stroke:#000000;stroke-width:1pt;stroke-opacity:1;fill:#000000;fill-opacity:1"
         transform="scale(0.8) rotate(180) translate(12.5,0)" />
    </marker>
    <pattern
       inkscape:collect="always"
       xlink:href="#pattern6361"
       id="pattern6372"
       patternTransform="matrix(0.11103335,-0.11103335,3.1911939,3.1911939,-24.870597,-24.923311)" />
    <pattern
       inkscape:collect="always"
       xlink:href="#pattern6361"
       id="pattern6370"
       patternTransform="matrix(0.1120655,-0.1120655,3.2114449,3.2114449,-24.870597,-24.923311)" />
    <pattern
       patternUnits="userSpaceOnUse"
       width="11.778535"
       height="11.778536"
       patternTransform="translate(22.860733,19.865793)"
       id="pattern6311">
      <path
         inkscape:connector-curvature="0"
         id="path6309"
         d="M 0.35355341,11.424982 11.424981,0.35355337"
         style="fill:#999999;fill-rule:evenodd;stroke:#9e9e9e;stroke-width:1px;stroke-linecap:butt;stroke-linejoin:miter;stroke-opacity:1" />
    </pattern>
    <pattern
       patternUnits="userSpaceOnUse"
       width="15.278559"
       height="7.2605"
       patternTransform="translate(26.200832,23.648118)"
       id="pattern6361">
      <g
         transform="translate(-28.663078,-17.082127)"
         id="g6355">
        <g
           id="g6350">
          <g
             id="g6346">
            <rect
               style="opacity:1;fill:#999999;fill-opacity:0.8433735;stroke:none;stroke-width:1;stroke-linecap:square;stroke-linejoin:bevel;stroke-miterlimit:4;stroke-dasharray:2, 1;stroke-dashoffset:0;stroke-opacity:1"
               id="rect6342"
               width="2.1465735"
               height="7.2605"
               x="28.663078"
               y="17.082127" />
            <rect
               style="opacity:1;fill:none;fill-opacity:0.8433735;stroke:none;stroke-width:1;stroke-linecap:square;stroke-linejoin:bevel;stroke-miterlimit:4;stroke-dasharray:2, 1;stroke-dashoffset:0;stroke-opacity:1"
               id="rect6344"
               width="10.543467"
               height="7.2605"
               x="33.39817"
               y="17.082127" />
          </g>
        </g>
      </g>
    </pattern>
    <marker
       inkscape:stockid="Arrow2Lend"
       orient="auto"
       refY="0"
       refX="0"
       id="marker7036-9"
       style="overflow:visible"
       inkscape:isstock="true">
      <path
         inkscape:connector-curvature="0"
         id="path7038-1"
         style="fill:#000000;fill-opacity:1;fill-rule:evenodd;stroke:#000000;stroke-width:0.625;stroke-linejoin:round;stroke-opacity:1"
         d="M 8.7185878,4.0337352 -2.2072895,0.01601326 8.7185884,-4.0017078 c -1.7454984,2.3720609 -1.7354408,5.6174519 -6e-7,8.035443 z"
         transform="matrix(-1.1,0,0,-1.1,-1.1,0)" />
    </marker>
    <pattern
       patternUnits="userSpaceOnUse"
       width="15.278559"
       height="7.2605"
       patternTransform="translate(26.200832,23.648118)"
       id="pattern6361-9">
      <g
         transform="translate(-28.663078,-17.082127)"
         id="g6355-4">
        <g
           id="g6350-5">
          <g
             id="g6346-2">
            <rect
               style="opacity:1;fill:#999999;fill-opacity:0.8433735;stroke:none;stroke-width:1;stroke-linecap:square;stroke-linejoin:bevel;stroke-miterlimit:4;stroke-dasharray:2, 1;stroke-dashoffset:0;stroke-opacity:1"
               id="rect6342-9"
               width="2.1465735"
               height="7.2605"
               x="28.663078"
               y="17.082127" />
            <rect
               style="opacity:1;fill:none;fill-opacity:0.8433735;stroke:none;stroke-width:1;stroke-linecap:square;stroke-linejoin:bevel;stroke-miterlimit:4;stroke-dasharray:2, 1;stroke-dashoffset:0;stroke-opacity:1"
               id="rect6344-1"
               width="10.543467"
               height="7.2605"
               x="33.39817"
               y="17.082127" />
          </g>
        </g>
      </g>
    </pattern>
    <pattern
       patternUnits="userSpaceOnUse"
       width="15.278559"
       height="7.2605"
       patternTransform="translate(26.200832,23.648118)"
       id="pattern7634">
      <g
         transform="translate(-28.663078,-17.082127)"
         id="g7636">
        <g
           id="g7638">
          <g
             id="g7640">
            <rect
               style="opacity:1;fill:#999999;fill-opacity:0.8433735;stroke:none;stroke-width:1;stroke-linecap:square;stroke-linejoin:bevel;stroke-miterlimit:4;stroke-dasharray:2, 1;stroke-dashoffset:0;stroke-opacity:1"
               id="rect7642"
               width="2.1465735"
               height="7.2605"
               x="28.663078"
               y="17.082127" />
            <rect
               style="opacity:1;fill:none;fill-opacity:0.8433735;stroke:none;stroke-width:1;stroke-linecap:square;stroke-linejoin:bevel;stroke-miterlimit:4;stroke-dasharray:2, 1;stroke-dashoffset:0;stroke-opacity:1"
               id="rect7644"
               width="10.543467"
               height="7.2605"
               x="33.39817"
               y="17.082127" />
          </g>
        </g>
      </g>
    </pattern>
  </defs>
  <sodipodi:namedview
     id="base"
     pagecolor="#ffffff"
     bordercolor="#666666"
     borderopacity="1.0"
     inkscape:pageopacity="0.0"
     inkscape:pageshadow="2"
     inkscape:zoom="2.8"
     inkscape:cx="229.68811"
     inkscape:cy="945.12746"
     inkscape:document-units="px"
     inkscape:current-layer="layer1"
     showgrid="false"
     showguides="true"
     inkscape:guide-bbox="true"
     inkscape:window-width="1920"
     inkscape:window-height="1018"
     inkscape:window-x="-8"
     inkscape:window-y="-8"
     inkscape:window-maximized="1" />
  <metadata
     id="metadata7">
    <rdf:RDF>
      <cc:Work
         rdf:about="">
        <dc:format>image/svg+xml</dc:format>
        <dc:type
           rdf:resource="http://purl.org/dc/dcmitype/StillImage" />
        <dc:title></dc:title>
      </cc:Work>
    </rdf:RDF>
  </metadata>
  <g
     inkscape:label="Layer 1"
     inkscape:groupmode="layer"
     id="layer1">
    <path
       style="fill:url(#pattern6372);fill-opacity:1;fill-rule:evenodd;stroke:#000000;stroke-width:0.99922687px;stroke-linecap:butt;stroke-linejoin:bevel;stroke-opacity:1"
       d="M 109.99973,44.988144 155.71455,82.073151 118.9284,125.57672"
       id="path4824"
       inkscape:connector-curvature="0" />
    <path
       style="fill:none;fill-rule:evenodd;stroke:#000000;stroke-width:1.00865555px;stroke-linecap:butt;stroke-linejoin:miter;stroke-opacity:1"
       d="M 136.07114,135.93137 118.42378,125.57875"
       id="path4826"
       inkscape:connector-curvature="0"
       sodipodi:nodetypes="cc" />
    <path
       style="fill:none;fill-rule:evenodd;stroke:#000000;stroke-width:1.01033854px;stroke-linecap:butt;stroke-linejoin:miter;stroke-opacity:1"
       d="M 106.07379,136.28566 118.717,125.55994"
       id="path4828"
       inkscape:connector-curvature="0"
       sodipodi:nodetypes="cc" />
    <path
       style="fill:none;fill-rule:evenodd;stroke:#000000;stroke-width:1px;stroke-linecap:butt;stroke-linejoin:miter;stroke-opacity:1"
       d="M 98.571431,34.147917 110.35714,45.219346 123.21429,33.076489"
       id="path4830"
       inkscape:connector-curvature="0"
       sodipodi:nodetypes="ccc" />
    <path
       style="fill:none;fill-rule:evenodd;stroke:#000000;stroke-width:1px;stroke-linecap:butt;stroke-linejoin:miter;stroke-opacity:1"
       d="m 161.42857,101.64792 -5.71429,-19.999999 0.71429,-17.14286"
       id="path4832"
       inkscape:connector-curvature="0"
       sodipodi:nodetypes="ccc" />
    <path
       style="fill:none;fill-rule:evenodd;stroke:#000000;stroke-width:1px;stroke-linecap:butt;stroke-linejoin:miter;stroke-opacity:1"
       d="m 41.071424,107.71934 3.21429,-15.357139 -5.357143,-15.35714"
       id="path4834"
       inkscape:connector-curvature="0"
       sodipodi:nodetypes="ccc" />
    <path
       style="fill:url(#pattern6370);fill-opacity:1;fill-rule:evenodd;stroke:#000000;stroke-width:1px;stroke-linecap:butt;stroke-linejoin:bevel;stroke-opacity:1"
       d="M 110.30044,45.282278 118.50793,125.5894 44.135449,92.254371 Z"
       id="path4836"
       inkscape:connector-curvature="0" />
    <path
       style="fill:none;fill-rule:evenodd;stroke:#000000;stroke-width:1;stroke-linecap:butt;stroke-linejoin:miter;stroke-miterlimit:0;stroke-dasharray:none;stroke-opacity:1;marker-end:url(#marker7036)"
       d="m 110.35714,45.933632 7.97259,77.711068"
       id="path6376"
       inkscape:connector-curvature="0"
       sodipodi:nodetypes="cc" />
    <path
       style="fill:none;fill-rule:evenodd;stroke:#000000;stroke-width:1.00865555px;stroke-linecap:butt;stroke-linejoin:miter;stroke-opacity:1"
       d="M 299.0668,136.10164 281.41944,125.74902"
       id="path4826-0"
       inkscape:connector-curvature="0"
       sodipodi:nodetypes="cc" />
    <path
       style="fill:none;fill-rule:evenodd;stroke:#000000;stroke-width:1.01033854px;stroke-linecap:butt;stroke-linejoin:miter;stroke-opacity:1"
       d="m 269.06945,136.45593 12.64321,-10.72572"
       id="path4828-7"
       inkscape:connector-curvature="0"
       sodipodi:nodetypes="cc" />
    <path
       style="fill:none;fill-rule:evenodd;stroke:#000000;stroke-width:1px;stroke-linecap:butt;stroke-linejoin:miter;stroke-opacity:1"
       d="m 324.42423,101.81819 -5.71429,-19.999998 0.71429,-17.14286"
       id="path4832-9"
       inkscape:connector-curvature="0"
       sodipodi:nodetypes="ccc" />
    <path
       style="fill:none;fill-rule:evenodd;stroke:#000000;stroke-width:1px;stroke-linecap:butt;stroke-linejoin:miter;stroke-opacity:1"
       d="m 204.06709,107.88961 3.21429,-15.357138 -5.35715,-15.35714"
       id="path4834-2"
       inkscape:connector-curvature="0"
       sodipodi:nodetypes="ccc" />
    <path
       style="fill:none;fill-rule:evenodd;stroke:#000000;stroke-width:1px;stroke-linecap:butt;stroke-linejoin:miter;stroke-opacity:1"
       d="m 207.30463,92.183635 74.49875,33.616145"
       id="path7756"
       inkscape:connector-curvature="0" />
    <path
       style="fill:none;fill-rule:evenodd;stroke:#000000;stroke-width:1px;stroke-linecap:butt;stroke-linejoin:miter;stroke-opacity:1"
       d="M 281.55084,125.54724 318.42141,81.605608"
       id="path7758"
       inkscape:connector-curvature="0" />
    <path
       style="fill:none;fill-rule:evenodd;stroke:#000000;stroke-width:1px;stroke-linecap:butt;stroke-linejoin:bevel;stroke-opacity:1"
       d="M 235.27989,46.354873 281.31362,125.29471 303.0319,47.260421"
       id="path7760"
       inkscape:connector-curvature="0"
       sodipodi:nodetypes="ccc" />
    <text
       xml:space="preserve"
       style="font-style:normal;font-weight:normal;font-size:12px;line-height:125%;font-family:Sans;letter-spacing:0px;word-spacing:0px;fill:#000000;fill-opacity:1;stroke:none;stroke-width:1px;stroke-linecap:butt;stroke-linejoin:miter;stroke-opacity:1"
       x="50.714287"
       y="32.362202"
       id="text7766"
       sodipodi:linespacing="125%"><tspan
         sodipodi:role="line"
         id="tspan7768"
         x="50.714287"
         y="32.362202" /></text>
    <g
       id="g7828">
      <text
         sodipodi:linespacing="125%"
         id="text7770"
         y="48.290771"
         x="121.85714"
         style="font-style:normal;font-weight:normal;font-size:7.5px;line-height:125%;font-family:Sans;letter-spacing:0px;word-spacing:0px;fill:#000000;fill-opacity:1;stroke:none;stroke-width:1px;stroke-linecap:butt;stroke-linejoin:miter;stroke-opacity:1"
         xml:space="preserve"><tspan
           y="48.290771"
           x="121.85714"
           id="tspan7772"
           sodipodi:role="line">i</tspan></text>
      <text
         sodipodi:linespacing="125%"
         id="text7778"
         y="46.505058"
         x="116.5"
         style="font-style:normal;font-weight:normal;font-size:7.5px;line-height:125%;font-family:Sans;letter-spacing:0px;word-spacing:0px;fill:#000000;fill-opacity:1;stroke:none;stroke-width:1px;stroke-linecap:butt;stroke-linejoin:miter;stroke-opacity:1"
         xml:space="preserve"><tspan
           style="font-size:10px"
           y="46.505058"
           x="116.5"
           id="tspan7780"
           sodipodi:role="line">v</tspan></text>
    </g>
    <g
       id="g7786">
      <text
         sodipodi:linespacing="125%"
         id="text7774"
         y="128.29077"
         x="129.92859"
         style="font-style:normal;font-weight:normal;font-size:7.5px;line-height:125%;font-family:Sans;letter-spacing:0px;word-spacing:0px;fill:#000000;fill-opacity:1;stroke:none;stroke-width:1px;stroke-linecap:butt;stroke-linejoin:miter;stroke-opacity:1"
         xml:space="preserve"><tspan
           y="128.29077"
           x="129.92859"
           id="tspan7776"
           sodipodi:role="line">j</tspan></text>
      <text
         xml:space="preserve"
         style="font-style:normal;font-weight:normal;font-size:7.5px;line-height:125%;font-family:Sans;letter-spacing:0px;word-spacing:0px;fill:#000000;fill-opacity:1;stroke:none;stroke-width:1px;stroke-linecap:butt;stroke-linejoin:miter;stroke-opacity:1"
         x="124.5"
         y="126.50507"
         id="text7782"
         sodipodi:linespacing="125%"><tspan
           sodipodi:role="line"
           id="tspan7784"
           x="124.5"
           y="126.50507"
           style="font-size:10px">v</tspan></text>
    </g>
    <g
       id="g7798"
       transform="translate(180.60439,0.1894036)">
      <text
         xml:space="preserve"
         style="font-style:normal;font-weight:normal;font-size:7.5px;line-height:125%;font-family:Sans;letter-spacing:0px;word-spacing:0px;fill:#000000;fill-opacity:1;stroke:none;stroke-width:1px;stroke-linecap:butt;stroke-linejoin:miter;stroke-opacity:1"
         x="129.92859"
         y="128.29077"
         id="text7800"
         sodipodi:linespacing="125%"><tspan
           sodipodi:role="line"
           id="tspan7802"
           x="129.92859"
           y="128.29077">j</tspan></text>
      <text
         sodipodi:linespacing="125%"
         id="text7804"
         y="126.50507"
         x="124.5"
         style="font-style:normal;font-weight:normal;font-size:7.5px;line-height:125%;font-family:Sans;letter-spacing:0px;word-spacing:0px;fill:#000000;fill-opacity:1;stroke:none;stroke-width:1px;stroke-linecap:butt;stroke-linejoin:miter;stroke-opacity:1"
         xml:space="preserve"><tspan
           style="font-size:10px"
           y="126.50507"
           x="124.5"
           id="tspan7806"
           sodipodi:role="line">v</tspan></text>
    </g>
    <text
       xml:space="preserve"
       style="font-style:normal;font-weight:normal;font-size:6.25px;line-height:125%;font-family:Sans;letter-spacing:0px;word-spacing:0px;fill:#000000;fill-opacity:1;stroke:none;stroke-width:1px;stroke-linecap:butt;stroke-linejoin:miter;stroke-opacity:1;"
       x="74.285721"
       y="65.219345"
       id="text7808"
       sodipodi:linespacing="125%"><tspan
         sodipodi:role="line"
         id="tspan7810"
         x="74.285721"
         y="65.219345">1</tspan></text>
    <text
       xml:space="preserve"
       style="font-style:normal;font-weight:normal;font-size:6.25px;line-height:125%;font-family:Sans;letter-spacing:0px;word-spacing:0px;fill:#000000;fill-opacity:1;stroke:none;stroke-width:1px;stroke-linecap:butt;stroke-linejoin:miter;stroke-opacity:1;"
       x="72.5"
       y="114.50506"
       id="text7812"
       sodipodi:linespacing="125%"><tspan
         sodipodi:role="line"
         id="tspan7814"
         x="72.5"
         y="114.50506">2</tspan></text>
    <text
       xml:space="preserve"
       style="font-style:normal;font-weight:normal;font-size:6.25px;line-height:125%;font-family:Sans;letter-spacing:0px;word-spacing:0px;fill:#000000;fill-opacity:1;stroke:none;stroke-width:1px;stroke-linecap:butt;stroke-linejoin:miter;stroke-opacity:1;"
       x="140"
       y="107.71935"
       id="text7816"
       sodipodi:linespacing="125%"><tspan
         sodipodi:role="line"
         id="tspan7818"
         x="140"
         y="107.71935">3</tspan></text>
    <text
       xml:space="preserve"
       style="font-style:normal;font-weight:normal;font-size:6.25px;line-height:125%;font-family:Sans;letter-spacing:0px;word-spacing:0px;fill:#000000;fill-opacity:1;stroke:none;stroke-width:1px;stroke-linecap:butt;stroke-linejoin:miter;stroke-opacity:1"
       x="134.49997"
       y="62.147915"
       id="text7820"
       sodipodi:linespacing="125%"><tspan
         sodipodi:role="line"
         id="tspan7822"
         x="134.49997"
         y="62.147915">4</tspan></text>
    <text
       xml:space="preserve"
       style="font-style:normal;font-weight:normal;font-size:7.5px;line-height:125%;font-family:Sans;letter-spacing:0px;word-spacing:0px;fill:#000000;fill-opacity:1;stroke:none;stroke-width:1px;stroke-linecap:butt;stroke-linejoin:miter;stroke-opacity:1"
       x="118.57143"
       y="27.00506"
       id="text7834"
       sodipodi:linespacing="125%"><tspan
         sodipodi:role="line"
         id="tspan7836"
         x="118.57143"
         y="27.00506" /></text>
    <circle
       style="opacity:1;fill:#000000;fill-opacity:1;stroke:none;stroke-width:1;stroke-linecap:square;stroke-linejoin:bevel;stroke-miterlimit:0;stroke-dasharray:none;stroke-dashoffset:0;stroke-opacity:1"
       id="path7873"
       cx="118.63456"
       cy="125.97512"
       r="2.1428571" />
    <circle
       style="opacity:1;fill:#000000;fill-opacity:1;stroke:none;stroke-width:1;stroke-linecap:square;stroke-linejoin:bevel;stroke-miterlimit:0;stroke-dasharray:none;stroke-dashoffset:0;stroke-opacity:1"
       id="path7873-5"
       cx="110.35715"
       cy="45.576488"
       r="2.1428571" />
    <circle
       style="opacity:1;fill:#000000;fill-opacity:1;stroke:none;stroke-width:1;stroke-linecap:square;stroke-linejoin:bevel;stroke-miterlimit:0;stroke-dasharray:none;stroke-dashoffset:0;stroke-opacity:1"
       id="path7873-0"
       cx="281.29831"
       cy="125.67351"
       r="2.1428571" />
    <text
       xml:space="preserve"
       style="font-style:normal;font-weight:normal;font-size:6.25px;line-height:125%;font-family:Sans;letter-spacing:0px;word-spacing:0px;fill:#000000;fill-opacity:1;stroke:none;stroke-width:1px;stroke-linecap:butt;stroke-linejoin:miter;stroke-opacity:1;"
       x="116.07143"
       y="79.505058"
       id="text7896"
       sodipodi:linespacing="125%"><tspan
         sodipodi:role="line"
         id="tspan7898"
         x="116.07143"
         y="79.505058">e</tspan></text>
    <text
       xml:space="preserve"
       style="font-style:normal;font-weight:normal;font-size:6.25px;line-height:125%;font-family:Sans;letter-spacing:0px;word-spacing:0px;fill:#000000;fill-opacity:1;stroke:none;stroke-width:1px;stroke-linecap:butt;stroke-linejoin:miter;stroke-opacity:1"
       x="228.39304"
       y="112.99419"
       id="text7900"
       sodipodi:linespacing="125%"><tspan
         sodipodi:role="line"
         id="tspan7902"
         x="228.39304"
         y="112.99419">1+2</tspan></text>
    <text
       xml:space="preserve"
       style="font-style:normal;font-weight:normal;font-size:6.25px;line-height:125%;font-family:Sans;letter-spacing:0px;word-spacing:0px;fill:#000000;fill-opacity:1;stroke:none;stroke-width:1px;stroke-linecap:butt;stroke-linejoin:miter;stroke-opacity:1"
       x="300.23865"
       y="110.14241"
       id="text7904"
       sodipodi:linespacing="125%"><tspan
         sodipodi:role="line"
         id="tspan7906"
         x="300.23865"
         y="110.14241">3+4</tspan></text>
    <g
       transform="translate(172.89725,80.126089)"
       id="g7828-5">
      <text
         sodipodi:linespacing="125%"
         id="text7770-2"
         y="48.290771"
         x="121.85714"
         style="font-style:normal;font-weight:normal;font-size:7.5px;line-height:125%;font-family:Sans;letter-spacing:0px;word-spacing:0px;fill:#000000;fill-opacity:1;stroke:none;stroke-width:1px;stroke-linecap:butt;stroke-linejoin:miter;stroke-opacity:1"
         xml:space="preserve"><tspan
           y="48.290771"
           x="121.85714"
           id="tspan7772-0"
           sodipodi:role="line">i</tspan></text>
      <text
         sodipodi:linespacing="125%"
         id="text7778-1"
         y="46.505058"
         x="116.5"
         style="font-style:normal;font-weight:normal;font-size:7.5px;line-height:125%;font-family:Sans;letter-spacing:0px;word-spacing:0px;fill:#000000;fill-opacity:1;stroke:none;stroke-width:1px;stroke-linecap:butt;stroke-linejoin:miter;stroke-opacity:1"
         xml:space="preserve"><tspan
           style="font-size:10px"
           y="46.505058"
           x="116.5"
           id="tspan7780-1"
           sodipodi:role="line">v</tspan></text>
    </g>
    <text
       xml:space="preserve"
       style="font-style:normal;font-weight:normal;font-size:7.5px;line-height:125%;font-family:Sans;letter-spacing:0px;word-spacing:0px;fill:#000000;fill-opacity:1;stroke:none;stroke-width:1px;stroke-linecap:butt;stroke-linejoin:miter;stroke-opacity:1"
       x="298.09213"
       y="126.62054"
       id="text7935"
       sodipodi:linespacing="125%"><tspan
         sodipodi:role="line"
         id="tspan7937"
         x="298.09213"
         y="126.62054">+</tspan></text>
  </g>
</svg>
