<?xml version="1.0" encoding="UTF-8" standalone="no"?>
<!-- Created with Inkscape (http://www.inkscape.org/) -->

<svg
   xmlns:dc="http://purl.org/dc/elements/1.1/"
   xmlns:cc="http://creativecommons.org/ns#"
   xmlns:rdf="http://www.w3.org/1999/02/22-rdf-syntax-ns#"
   xmlns:svg="http://www.w3.org/2000/svg"
   xmlns="http://www.w3.org/2000/svg"
   xmlns:sodipodi="http://sodipodi.sourceforge.net/DTD/sodipodi-0.dtd"
   xmlns:inkscape="http://www.inkscape.org/namespaces/inkscape"
   width="210mm"
   height="297mm"
   viewBox="0 0 744.09448819 1052.3622047"
   id="svg2"
   version="1.1"
   inkscape:version="0.91 r13725"
   sodipodi:docname="ppm-odstraneni-vetvi.svg">
  <defs
     id="defs4" />
  <sodipodi:namedview
     id="base"
     pagecolor="#ffffff"
     bordercolor="#666666"
     borderopacity="1.0"
     inkscape:pageopacity="0.0"
     inkscape:pageshadow="2"
     inkscape:zoom="1.979899"
     inkscape:cx="162.54673"
     inkscape:cy="991.80671"
     inkscape:document-units="px"
     inkscape:current-layer="g4824"
     showgrid="false"
     showguides="true"
     inkscape:guide-bbox="true"
     inkscape:window-width="1920"
     inkscape:window-height="1018"
     inkscape:window-x="-8"
     inkscape:window-y="-8"
     inkscape:window-maximized="1" />
  <metadata
     id="metadata7">
    <rdf:RDF>
      <cc:Work
         rdf:about="">
        <dc:format>image/svg+xml</dc:format>
        <dc:type
           rdf:resource="http://purl.org/dc/dcmitype/StillImage" />
        <dc:title></dc:title>
      </cc:Work>
    </rdf:RDF>
  </metadata>
  <g
     inkscape:label="Layer 1"
     inkscape:groupmode="layer"
     id="layer1">
    <circle
       style="opacity:0.89800002;fill:#000000;fill-opacity:1;fill-rule:nonzero;stroke:none;stroke-width:1;stroke-linecap:square;stroke-linejoin:bevel;stroke-miterlimit:4;stroke-dasharray:none;stroke-dashoffset:0;stroke-opacity:1"
       id="path4160-3-7"
       cx="399.10092"
       cy="52.068298"
       r="0" />
    <circle
       style="opacity:0.89800002;fill:#000000;fill-opacity:1;fill-rule:nonzero;stroke:none;stroke-width:1;stroke-linecap:square;stroke-linejoin:bevel;stroke-miterlimit:4;stroke-dasharray:none;stroke-dashoffset:0;stroke-opacity:1"
       id="path4160-4-6"
       cx="398.74377"
       cy="63.496864"
       r="0" />
    <circle
       style="opacity:0.89800002;fill:#000000;fill-opacity:1;fill-rule:nonzero;stroke:none;stroke-width:1;stroke-linecap:square;stroke-linejoin:bevel;stroke-miterlimit:4;stroke-dasharray:none;stroke-dashoffset:0;stroke-opacity:1"
       id="path4160-32-5"
       cx="423.7438"
       cy="63.854012"
       r="0" />
    <circle
       style="opacity:0.89800002;fill:#000000;fill-opacity:1;fill-rule:nonzero;stroke:none;stroke-width:1;stroke-linecap:square;stroke-linejoin:bevel;stroke-miterlimit:4;stroke-dasharray:none;stroke-dashoffset:0;stroke-opacity:1"
       id="path4160-31-0"
       cx="458.38666"
       cy="68.854012"
       r="0" />
    <circle
       style="opacity:0.89800002;fill:#000000;fill-opacity:1;fill-rule:nonzero;stroke:none;stroke-width:1;stroke-linecap:square;stroke-linejoin:bevel;stroke-miterlimit:4;stroke-dasharray:none;stroke-dashoffset:0;stroke-opacity:1"
       id="path4160-7-9"
       cx="521.24377"
       cy="63.425446"
       r="0" />
    <circle
       style="opacity:0.89800002;fill:#000000;fill-opacity:1;fill-rule:nonzero;stroke:none;stroke-width:1;stroke-linecap:square;stroke-linejoin:bevel;stroke-miterlimit:4;stroke-dasharray:none;stroke-dashoffset:0;stroke-opacity:1"
       id="path4160-8-6"
       cx="398.02948"
       cy="102.78258"
       r="0" />
    <circle
       style="opacity:0.89800002;fill:#000000;fill-opacity:1;fill-rule:nonzero;stroke:none;stroke-width:1;stroke-linecap:square;stroke-linejoin:bevel;stroke-miterlimit:4;stroke-dasharray:none;stroke-dashoffset:0;stroke-opacity:1"
       id="path4160-83-7"
       cx="399.45807"
       cy="150.28258"
       r="0" />
    <circle
       style="opacity:0.89800002;fill:#000000;fill-opacity:1;fill-rule:nonzero;stroke:none;stroke-width:1;stroke-linecap:square;stroke-linejoin:bevel;stroke-miterlimit:4;stroke-dasharray:none;stroke-dashoffset:0;stroke-opacity:1"
       id="path4160-5-7"
       cx="414.10092"
       cy="161.71115"
       r="0" />
    <circle
       style="opacity:0.89800002;fill:#000000;fill-opacity:1;fill-rule:nonzero;stroke:none;stroke-width:1;stroke-linecap:square;stroke-linejoin:bevel;stroke-miterlimit:4;stroke-dasharray:none;stroke-dashoffset:0;stroke-opacity:1"
       id="path4160-9-3"
       cx="424.10092"
       cy="209.92543"
       r="0" />
    <circle
       style="opacity:0.89800002;fill:#000000;fill-opacity:1;fill-rule:nonzero;stroke:none;stroke-width:1;stroke-linecap:square;stroke-linejoin:bevel;stroke-miterlimit:4;stroke-dasharray:none;stroke-dashoffset:0;stroke-opacity:1"
       id="path4160-84-6"
       cx="426.95807"
       cy="259.56827"
       r="0" />
    <circle
       style="opacity:0.89800002;fill:#000000;fill-opacity:1;fill-rule:nonzero;stroke:none;stroke-width:1;stroke-linecap:square;stroke-linejoin:bevel;stroke-miterlimit:4;stroke-dasharray:none;stroke-dashoffset:0;stroke-opacity:1"
       id="path4160-44-4"
       cx="432.67236"
       cy="269.21112"
       r="0" />
    <circle
       style="opacity:0.89800002;fill:#000000;fill-opacity:1;fill-rule:nonzero;stroke:none;stroke-width:1;stroke-linecap:square;stroke-linejoin:bevel;stroke-miterlimit:4;stroke-dasharray:none;stroke-dashoffset:0;stroke-opacity:1"
       id="path4160-1-3"
       cx="366.60092"
       cy="270.63971"
       r="0" />
    <circle
       style="opacity:0.89800002;fill:#000000;fill-opacity:1;fill-rule:nonzero;stroke:none;stroke-width:1;stroke-linecap:square;stroke-linejoin:bevel;stroke-miterlimit:4;stroke-dasharray:none;stroke-dashoffset:0;stroke-opacity:1"
       id="path4160-78-9"
       cx="370.52951"
       cy="260.63971"
       r="0" />
    <circle
       style="opacity:0.89800002;fill:#000000;fill-opacity:1;fill-rule:nonzero;stroke:none;stroke-width:1;stroke-linecap:square;stroke-linejoin:bevel;stroke-miterlimit:4;stroke-dasharray:none;stroke-dashoffset:0;stroke-opacity:1"
       id="path4160-43-5"
       cx="376.60092"
       cy="208.85403"
       r="0" />
    <circle
       style="opacity:0.89800002;fill:#000000;fill-opacity:1;fill-rule:nonzero;stroke:none;stroke-width:1;stroke-linecap:square;stroke-linejoin:bevel;stroke-miterlimit:4;stroke-dasharray:none;stroke-dashoffset:0;stroke-opacity:1"
       id="path4160-58-0"
       cx="383.38666"
       cy="160.99686"
       r="0" />
    <circle
       style="opacity:0.89800002;fill:#000000;fill-opacity:1;fill-rule:nonzero;stroke:none;stroke-width:1;stroke-linecap:square;stroke-linejoin:bevel;stroke-miterlimit:4;stroke-dasharray:none;stroke-dashoffset:0;stroke-opacity:1"
       id="path4160-98-1"
       cx="369.45807"
       cy="63.496872"
       r="0" />
    <circle
       style="opacity:0.89800002;fill:#000000;fill-opacity:1;fill-rule:nonzero;stroke:none;stroke-width:1;stroke-linecap:square;stroke-linejoin:bevel;stroke-miterlimit:4;stroke-dasharray:none;stroke-dashoffset:0;stroke-opacity:1"
       id="path4160-2-6"
       cx="339.45807"
       cy="70.996872"
       r="0" />
    <circle
       style="opacity:0.89800002;fill:#000000;fill-opacity:1;fill-rule:nonzero;stroke:none;stroke-width:1;stroke-linecap:square;stroke-linejoin:bevel;stroke-miterlimit:4;stroke-dasharray:none;stroke-dashoffset:0;stroke-opacity:1"
       id="path4160-56-0"
       cx="304.10092"
       cy="68.496872"
       r="0" />
    <circle
       style="opacity:0.89800002;fill:#000000;fill-opacity:1;fill-rule:nonzero;stroke:none;stroke-width:1;stroke-linecap:square;stroke-linejoin:bevel;stroke-miterlimit:4;stroke-dasharray:none;stroke-dashoffset:0;stroke-opacity:1"
       id="path4160-94-4"
       cx="279.10092"
       cy="63.854012"
       r="0" />
    <circle
       style="opacity:0.89800002;fill:#000000;fill-opacity:1;fill-rule:nonzero;stroke:none;stroke-width:1;stroke-linecap:square;stroke-linejoin:bevel;stroke-miterlimit:4;stroke-dasharray:none;stroke-dashoffset:0;stroke-opacity:1"
       id="path4160-29-2"
       cx="495.31522"
       cy="68.139725"
       r="0" />
    <circle
       r="0"
       cy="50.933632"
       cx="415.71429"
       id="ellipse4509"
       style="opacity:0.89800002;fill:#000000;fill-opacity:1;fill-rule:nonzero;stroke:none;stroke-width:1;stroke-linecap:square;stroke-linejoin:bevel;stroke-miterlimit:4;stroke-dasharray:none;stroke-dashoffset:0;stroke-opacity:1" />
    <circle
       r="0"
       cy="62.362198"
       cx="415.35712"
       id="ellipse4511"
       style="opacity:0.89800002;fill:#000000;fill-opacity:1;fill-rule:nonzero;stroke:none;stroke-width:1;stroke-linecap:square;stroke-linejoin:bevel;stroke-miterlimit:4;stroke-dasharray:none;stroke-dashoffset:0;stroke-opacity:1" />
    <circle
       r="0"
       cy="62.719345"
       cx="440.35715"
       id="ellipse4513"
       style="opacity:0.89800002;fill:#000000;fill-opacity:1;fill-rule:nonzero;stroke:none;stroke-width:1;stroke-linecap:square;stroke-linejoin:bevel;stroke-miterlimit:4;stroke-dasharray:none;stroke-dashoffset:0;stroke-opacity:1" />
    <circle
       r="0"
       cy="67.719345"
       cx="475"
       id="ellipse4515"
       style="opacity:0.89800002;fill:#000000;fill-opacity:1;fill-rule:nonzero;stroke:none;stroke-width:1;stroke-linecap:square;stroke-linejoin:bevel;stroke-miterlimit:4;stroke-dasharray:none;stroke-dashoffset:0;stroke-opacity:1" />
    <circle
       r="0"
       cy="62.290779"
       cx="537.85718"
       id="ellipse4517"
       style="opacity:0.89800002;fill:#000000;fill-opacity:1;fill-rule:nonzero;stroke:none;stroke-width:1;stroke-linecap:square;stroke-linejoin:bevel;stroke-miterlimit:4;stroke-dasharray:none;stroke-dashoffset:0;stroke-opacity:1" />
    <circle
       r="0"
       cy="101.64792"
       cx="414.64285"
       id="ellipse4519"
       style="opacity:0.89800002;fill:#000000;fill-opacity:1;fill-rule:nonzero;stroke:none;stroke-width:1;stroke-linecap:square;stroke-linejoin:bevel;stroke-miterlimit:4;stroke-dasharray:none;stroke-dashoffset:0;stroke-opacity:1" />
    <circle
       r="0"
       cy="149.14792"
       cx="416.07141"
       id="ellipse4521"
       style="opacity:0.89800002;fill:#000000;fill-opacity:1;fill-rule:nonzero;stroke:none;stroke-width:1;stroke-linecap:square;stroke-linejoin:bevel;stroke-miterlimit:4;stroke-dasharray:none;stroke-dashoffset:0;stroke-opacity:1" />
    <circle
       r="0"
       cy="160.57649"
       cx="430.71429"
       id="ellipse4523"
       style="opacity:0.89800002;fill:#000000;fill-opacity:1;fill-rule:nonzero;stroke:none;stroke-width:1;stroke-linecap:square;stroke-linejoin:bevel;stroke-miterlimit:4;stroke-dasharray:none;stroke-dashoffset:0;stroke-opacity:1" />
    <circle
       r="0"
       cy="208.79077"
       cx="440.71429"
       id="ellipse4525"
       style="opacity:0.89800002;fill:#000000;fill-opacity:1;fill-rule:nonzero;stroke:none;stroke-width:1;stroke-linecap:square;stroke-linejoin:bevel;stroke-miterlimit:4;stroke-dasharray:none;stroke-dashoffset:0;stroke-opacity:1" />
    <circle
       r="0"
       cy="258.43362"
       cx="443.57141"
       id="ellipse4527"
       style="opacity:0.89800002;fill:#000000;fill-opacity:1;fill-rule:nonzero;stroke:none;stroke-width:1;stroke-linecap:square;stroke-linejoin:bevel;stroke-miterlimit:4;stroke-dasharray:none;stroke-dashoffset:0;stroke-opacity:1" />
    <circle
       r="0"
       cy="268.07648"
       cx="449.28571"
       id="ellipse4529"
       style="opacity:0.89800002;fill:#000000;fill-opacity:1;fill-rule:nonzero;stroke:none;stroke-width:1;stroke-linecap:square;stroke-linejoin:bevel;stroke-miterlimit:4;stroke-dasharray:none;stroke-dashoffset:0;stroke-opacity:1" />
    <circle
       r="0"
       cy="269.50507"
       cx="383.21429"
       id="ellipse4531"
       style="opacity:0.89800002;fill:#000000;fill-opacity:1;fill-rule:nonzero;stroke:none;stroke-width:1;stroke-linecap:square;stroke-linejoin:bevel;stroke-miterlimit:4;stroke-dasharray:none;stroke-dashoffset:0;stroke-opacity:1" />
    <circle
       r="0"
       cy="259.50507"
       cx="387.14285"
       id="ellipse4533"
       style="opacity:0.89800002;fill:#000000;fill-opacity:1;fill-rule:nonzero;stroke:none;stroke-width:1;stroke-linecap:square;stroke-linejoin:bevel;stroke-miterlimit:4;stroke-dasharray:none;stroke-dashoffset:0;stroke-opacity:1" />
    <circle
       r="0"
       cy="207.71938"
       cx="393.21429"
       id="ellipse4535"
       style="opacity:0.89800002;fill:#000000;fill-opacity:1;fill-rule:nonzero;stroke:none;stroke-width:1;stroke-linecap:square;stroke-linejoin:bevel;stroke-miterlimit:4;stroke-dasharray:none;stroke-dashoffset:0;stroke-opacity:1" />
    <circle
       r="0"
       cy="159.8622"
       cx="400"
       id="ellipse4537"
       style="opacity:0.89800002;fill:#000000;fill-opacity:1;fill-rule:nonzero;stroke:none;stroke-width:1;stroke-linecap:square;stroke-linejoin:bevel;stroke-miterlimit:4;stroke-dasharray:none;stroke-dashoffset:0;stroke-opacity:1" />
    <circle
       r="0"
       cy="62.362206"
       cx="386.07141"
       id="ellipse4539"
       style="opacity:0.89800002;fill:#000000;fill-opacity:1;fill-rule:nonzero;stroke:none;stroke-width:1;stroke-linecap:square;stroke-linejoin:bevel;stroke-miterlimit:4;stroke-dasharray:none;stroke-dashoffset:0;stroke-opacity:1" />
    <circle
       r="0"
       cy="69.862206"
       cx="356.07141"
       id="ellipse4541"
       style="opacity:0.89800002;fill:#000000;fill-opacity:1;fill-rule:nonzero;stroke:none;stroke-width:1;stroke-linecap:square;stroke-linejoin:bevel;stroke-miterlimit:4;stroke-dasharray:none;stroke-dashoffset:0;stroke-opacity:1" />
    <circle
       r="0"
       cy="67.362206"
       cx="320.71429"
       id="ellipse4543"
       style="opacity:0.89800002;fill:#000000;fill-opacity:1;fill-rule:nonzero;stroke:none;stroke-width:1;stroke-linecap:square;stroke-linejoin:bevel;stroke-miterlimit:4;stroke-dasharray:none;stroke-dashoffset:0;stroke-opacity:1" />
    <circle
       r="0"
       cy="62.719345"
       cx="295.71429"
       id="ellipse4545"
       style="opacity:0.89800002;fill:#000000;fill-opacity:1;fill-rule:nonzero;stroke:none;stroke-width:1;stroke-linecap:square;stroke-linejoin:bevel;stroke-miterlimit:4;stroke-dasharray:none;stroke-dashoffset:0;stroke-opacity:1" />
    <circle
       r="0"
       cy="67.005058"
       cx="511.92859"
       id="ellipse4547"
       style="opacity:0.89800002;fill:#000000;fill-opacity:1;fill-rule:nonzero;stroke:none;stroke-width:1;stroke-linecap:square;stroke-linejoin:bevel;stroke-miterlimit:4;stroke-dasharray:none;stroke-dashoffset:0;stroke-opacity:1" />
    <circle
       style="opacity:0.89800002;fill:#000000;fill-opacity:1;fill-rule:nonzero;stroke:none;stroke-width:1;stroke-linecap:square;stroke-linejoin:bevel;stroke-miterlimit:4;stroke-dasharray:none;stroke-dashoffset:0;stroke-opacity:1"
       id="path4160-3-72"
       cx="135.71428"
       cy="50.933632"
       r="0" />
    <circle
       style="opacity:0.89800002;fill:#000000;fill-opacity:1;fill-rule:nonzero;stroke:none;stroke-width:1;stroke-linecap:square;stroke-linejoin:bevel;stroke-miterlimit:4;stroke-dasharray:none;stroke-dashoffset:0;stroke-opacity:1"
       id="path4160-4-7"
       cx="135.35713"
       cy="62.362198"
       r="0" />
    <circle
       style="opacity:0.89800002;fill:#000000;fill-opacity:1;fill-rule:nonzero;stroke:none;stroke-width:1;stroke-linecap:square;stroke-linejoin:bevel;stroke-miterlimit:4;stroke-dasharray:none;stroke-dashoffset:0;stroke-opacity:1"
       id="path4160-32-4"
       cx="160.35715"
       cy="62.719345"
       r="0" />
    <circle
       style="opacity:0.89800002;fill:#000000;fill-opacity:1;fill-rule:nonzero;stroke:none;stroke-width:1;stroke-linecap:square;stroke-linejoin:bevel;stroke-miterlimit:4;stroke-dasharray:none;stroke-dashoffset:0;stroke-opacity:1"
       id="path4160-31-5"
       cx="195"
       cy="67.719345"
       r="0" />
    <circle
       style="opacity:0.89800002;fill:#000000;fill-opacity:1;fill-rule:nonzero;stroke:none;stroke-width:1;stroke-linecap:square;stroke-linejoin:bevel;stroke-miterlimit:4;stroke-dasharray:none;stroke-dashoffset:0;stroke-opacity:1"
       id="path4160-8-7"
       cx="134.64285"
       cy="101.64792"
       r="0" />
    <circle
       style="opacity:0.89800002;fill:#000000;fill-opacity:1;fill-rule:nonzero;stroke:none;stroke-width:1;stroke-linecap:square;stroke-linejoin:bevel;stroke-miterlimit:4;stroke-dasharray:none;stroke-dashoffset:0;stroke-opacity:1"
       id="path4160-83-0"
       cx="136.07143"
       cy="149.14792"
       r="0" />
    <circle
       style="opacity:0.89800002;fill:#000000;fill-opacity:1;fill-rule:nonzero;stroke:none;stroke-width:1;stroke-linecap:square;stroke-linejoin:bevel;stroke-miterlimit:4;stroke-dasharray:none;stroke-dashoffset:0;stroke-opacity:1"
       id="path4160-5-4"
       cx="150.71428"
       cy="160.57649"
       r="0" />
    <circle
       style="opacity:0.89800002;fill:#000000;fill-opacity:1;fill-rule:nonzero;stroke:none;stroke-width:1;stroke-linecap:square;stroke-linejoin:bevel;stroke-miterlimit:4;stroke-dasharray:none;stroke-dashoffset:0;stroke-opacity:1"
       id="path4160-9-8"
       cx="160.71428"
       cy="208.79077"
       r="0" />
    <circle
       style="opacity:0.89800002;fill:#000000;fill-opacity:1;fill-rule:nonzero;stroke:none;stroke-width:1;stroke-linecap:square;stroke-linejoin:bevel;stroke-miterlimit:4;stroke-dasharray:none;stroke-dashoffset:0;stroke-opacity:1"
       id="path4160-84-68"
       cx="163.57143"
       cy="258.43362"
       r="0" />
    <circle
       style="opacity:0.89800002;fill:#000000;fill-opacity:1;fill-rule:nonzero;stroke:none;stroke-width:1;stroke-linecap:square;stroke-linejoin:bevel;stroke-miterlimit:4;stroke-dasharray:none;stroke-dashoffset:0;stroke-opacity:1"
       id="path4160-44-6"
       cx="169.28572"
       cy="268.07648"
       r="0" />
    <circle
       style="opacity:0.89800002;fill:#000000;fill-opacity:1;fill-rule:nonzero;stroke:none;stroke-width:1;stroke-linecap:square;stroke-linejoin:bevel;stroke-miterlimit:4;stroke-dasharray:none;stroke-dashoffset:0;stroke-opacity:1"
       id="path4160-1-7"
       cx="103.21429"
       cy="269.50507"
       r="0" />
    <circle
       style="opacity:0.89800002;fill:#000000;fill-opacity:1;fill-rule:nonzero;stroke:none;stroke-width:1;stroke-linecap:square;stroke-linejoin:bevel;stroke-miterlimit:4;stroke-dasharray:none;stroke-dashoffset:0;stroke-opacity:1"
       id="path4160-78-7"
       cx="107.14286"
       cy="259.50507"
       r="0" />
    <circle
       style="opacity:0.89800002;fill:#000000;fill-opacity:1;fill-rule:nonzero;stroke:none;stroke-width:1;stroke-linecap:square;stroke-linejoin:bevel;stroke-miterlimit:4;stroke-dasharray:none;stroke-dashoffset:0;stroke-opacity:1"
       id="path4160-43-1"
       cx="113.21429"
       cy="207.71938"
       r="0" />
    <circle
       style="opacity:0.89800002;fill:#000000;fill-opacity:1;fill-rule:nonzero;stroke:none;stroke-width:1;stroke-linecap:square;stroke-linejoin:bevel;stroke-miterlimit:4;stroke-dasharray:none;stroke-dashoffset:0;stroke-opacity:1"
       id="path4160-58-8"
       cx="120"
       cy="159.8622"
       r="0" />
    <circle
       style="opacity:0.89800002;fill:#000000;fill-opacity:1;fill-rule:nonzero;stroke:none;stroke-width:1;stroke-linecap:square;stroke-linejoin:bevel;stroke-miterlimit:4;stroke-dasharray:none;stroke-dashoffset:0;stroke-opacity:1"
       id="path4160-98-4"
       cx="106.07143"
       cy="62.362206"
       r="0" />
    <circle
       style="opacity:0.89800002;fill:#000000;fill-opacity:1;fill-rule:nonzero;stroke:none;stroke-width:1;stroke-linecap:square;stroke-linejoin:bevel;stroke-miterlimit:4;stroke-dasharray:none;stroke-dashoffset:0;stroke-opacity:1"
       id="path4160-2-7"
       cx="76.071426"
       cy="69.862206"
       r="0" />
    <circle
       style="opacity:0.89800002;fill:#000000;fill-opacity:1;fill-rule:nonzero;stroke:none;stroke-width:1;stroke-linecap:square;stroke-linejoin:bevel;stroke-miterlimit:4;stroke-dasharray:none;stroke-dashoffset:0;stroke-opacity:1"
       id="path4160-56-1"
       cx="40.714287"
       cy="67.362206"
       r="0" />
    <circle
       style="opacity:0.89800002;fill:#000000;fill-opacity:1;fill-rule:nonzero;stroke:none;stroke-width:1;stroke-linecap:square;stroke-linejoin:bevel;stroke-miterlimit:4;stroke-dasharray:none;stroke-dashoffset:0;stroke-opacity:1"
       id="path4160-94-6"
       cx="15.714287"
       cy="62.719345"
       r="0" />
    <circle
       style="opacity:0.89800002;fill:#000000;fill-opacity:1;fill-rule:nonzero;stroke:none;stroke-width:1;stroke-linecap:square;stroke-linejoin:bevel;stroke-miterlimit:4;stroke-dasharray:none;stroke-dashoffset:0;stroke-opacity:1"
       id="path4160-29-0"
       cx="231.92857"
       cy="67.005058"
       r="0" />
    <g
       id="g4658"
       transform="matrix(0.75155699,0,0,0.75155699,62.916681,36.468269)">
      <g
         id="g4824">
        <g
           id="g4558">
          <path
             inkscape:connector-curvature="0"
             id="path4363"
             d="M -43.056704,0.91893844 -0.71819127,-8.489619 49.01276,-14.201959 l 42.674539,2.35214 32.593931,10.080598 21.84129,13.104779"
             style="fill:none;fill-rule:evenodd;stroke:#000000;stroke-width:1.33057106px;stroke-linecap:butt;stroke-linejoin:miter;stroke-opacity:1" />
          <path
             inkscape:connector-curvature="0"
             id="path4365"
             d="M -1.054211,-8.489619 9.6984267,-0.42514062 32.547784,6.6312784 46.660621,16.039836 67.493857,14.359737"
             style="fill:none;fill-rule:evenodd;stroke:#000000;stroke-width:1.33057106px;stroke-linecap:butt;stroke-linejoin:miter;stroke-opacity:1" />
          <path
             inkscape:connector-curvature="0"
             id="path4367"
             d="m 45.988581,15.703817 7.056418,10.080598"
             style="fill:none;fill-rule:evenodd;stroke:#000000;stroke-width:1.33057106px;stroke-linecap:butt;stroke-linejoin:miter;stroke-opacity:1" />
          <path
             inkscape:connector-curvature="0"
             id="path4369"
             d="m 48.676741,-14.201959 22.513336,-8.064478 15.456912,-10.416618"
             style="fill:none;fill-rule:evenodd;stroke:#000000;stroke-width:1.33057106px;stroke-linecap:butt;stroke-linejoin:miter;stroke-opacity:1" />
          <circle
             r="2.6136217"
             cy="-8.3146267"
             cx="-1.0296282"
             id="path4371-1"
             style="opacity:1;fill:#000000;fill-opacity:1;fill-rule:nonzero;stroke:none;stroke-width:1.33057106;stroke-linecap:square;stroke-linejoin:bevel;stroke-miterlimit:4;stroke-dasharray:none;stroke-dashoffset:0;stroke-opacity:1" />
          <circle
             r="2.6136217"
             cy="-14.017074"
             cx="49.817196"
             id="path4371-8"
             style="opacity:1;fill:#000000;fill-opacity:1;fill-rule:nonzero;stroke:none;stroke-width:1.33057106;stroke-linecap:square;stroke-linejoin:bevel;stroke-miterlimit:4;stroke-dasharray:none;stroke-dashoffset:0;stroke-opacity:1" />
          <circle
             r="2.6136217"
             cy="-11.403452"
             cx="92.347946"
             id="path4371-12"
             style="opacity:1;fill:#000000;fill-opacity:1;fill-rule:nonzero;stroke:none;stroke-width:1.33057106;stroke-linecap:square;stroke-linejoin:bevel;stroke-miterlimit:4;stroke-dasharray:none;stroke-dashoffset:0;stroke-opacity:1" />
          <circle
             r="2.6136217"
             cy="-0.94896507"
             cx="124.66181"
             id="path4371-6"
             style="opacity:1;fill:#000000;fill-opacity:1;fill-rule:nonzero;stroke:none;stroke-width:1.33057106;stroke-linecap:square;stroke-linejoin:bevel;stroke-miterlimit:4;stroke-dasharray:none;stroke-dashoffset:0;stroke-opacity:1" />
          <circle
             r="6.9818811"
             cy="12.119144"
             cx="146.52119"
             id="path4371-9"
             style="opacity:1;fill:#000000;fill-opacity:1;fill-rule:nonzero;stroke:#000000;stroke-width:1.33057106;stroke-linecap:square;stroke-linejoin:bevel;stroke-miterlimit:4;stroke-dasharray:none;stroke-dashoffset:0;stroke-opacity:1" />
          <circle
             r="2.6136217"
             cy="-0.25713232"
             cx="9.866437"
             id="path4371-1-0"
             style="opacity:1;fill:#ffffff;fill-opacity:1;fill-rule:nonzero;stroke:#000000;stroke-width:1.33057106;stroke-linecap:square;stroke-linejoin:bevel;stroke-miterlimit:4;stroke-dasharray:none;stroke-dashoffset:0;stroke-opacity:1" />
          <circle
             r="2.6136217"
             cy="6.9672961"
             cx="32.379772"
             id="path4371-1-0-7"
             style="opacity:1;fill:#ffffff;fill-opacity:1;fill-rule:nonzero;stroke:#000000;stroke-width:1.33057106;stroke-linecap:square;stroke-linejoin:bevel;stroke-miterlimit:4;stroke-dasharray:none;stroke-dashoffset:0;stroke-opacity:1" />
          <circle
             r="2.6136217"
             cy="16.207846"
             cx="46.15659"
             id="path4371-1-0-5"
             style="opacity:1;fill:#ffffff;fill-opacity:1;fill-rule:nonzero;stroke:#000000;stroke-width:1.33057106;stroke-linecap:square;stroke-linejoin:bevel;stroke-miterlimit:4;stroke-dasharray:none;stroke-dashoffset:0;stroke-opacity:1" />
          <circle
             r="2.6136217"
             cy="-22.098429"
             cx="71.862114"
             id="path4371-1-0-42"
             style="opacity:1;fill:#ffffff;fill-opacity:1;fill-rule:nonzero;stroke:#000000;stroke-width:1.33057106;stroke-linecap:square;stroke-linejoin:bevel;stroke-miterlimit:4;stroke-dasharray:none;stroke-dashoffset:0;stroke-opacity:1" />
          <circle
             r="6.9818811"
             cy="26.288443"
             cx="53.38102"
             id="path4371-9-1"
             style="opacity:1;fill:#ffffff;fill-opacity:1;fill-rule:nonzero;stroke:#000000;stroke-width:1.33057106;stroke-linecap:square;stroke-linejoin:bevel;stroke-miterlimit:4;stroke-dasharray:none;stroke-dashoffset:0;stroke-opacity:1" />
          <circle
             r="6.9818811"
             cy="14.359735"
             cx="67.661865"
             id="path4371-9-13"
             style="opacity:1;fill:#ffffff;fill-opacity:1;fill-rule:nonzero;stroke:#000000;stroke-width:1.33057106;stroke-linecap:square;stroke-linejoin:bevel;stroke-miterlimit:4;stroke-dasharray:none;stroke-dashoffset:0;stroke-opacity:1" />
          <circle
             r="6.9818811"
             cy="-32.683056"
             cx="86.646996"
             id="path4371-9-8"
             style="opacity:1;fill:#ffffff;fill-opacity:1;fill-rule:nonzero;stroke:#000000;stroke-width:1.33057106;stroke-linecap:square;stroke-linejoin:bevel;stroke-miterlimit:4;stroke-dasharray:none;stroke-dashoffset:0;stroke-opacity:1" />
          <text
             sodipodi:linespacing="125%"
             id="text4501"
             y="40.065258"
             x="64.973717"
             style="font-style:normal;font-weight:normal;font-size:13.30571079px;line-height:125%;font-family:Sans;letter-spacing:0px;word-spacing:0px;fill:#000000;fill-opacity:1;stroke:none;stroke-width:1px;stroke-linecap:butt;stroke-linejoin:miter;stroke-opacity:1"
             xml:space="preserve"><tspan
               y="40.065258"
               x="64.973717"
               id="tspan4503"
               sodipodi:role="line">L<tspan
   id="tspan4548"
   style="font-size:86.48712039%;baseline-shift:sub">4</tspan></tspan></text>
          <text
             sodipodi:linespacing="125%"
             id="text4501-9"
             y="19.2232"
             x="82.185196"
             style="font-style:normal;font-weight:normal;font-size:13.30571079px;line-height:125%;font-family:Sans;letter-spacing:0px;word-spacing:0px;fill:#000000;fill-opacity:1;stroke:none;stroke-width:1px;stroke-linecap:butt;stroke-linejoin:miter;stroke-opacity:1"
             xml:space="preserve"><tspan
               y="19.2232"
               x="82.185196"
               id="tspan4503-4"
               sodipodi:role="line">L<tspan
   id="tspan4550"
   style="font-size:86.48712039%;baseline-shift:sub">3</tspan></tspan></text>
          <text
             sodipodi:linespacing="125%"
             id="text4501-2"
             y="-28.491631"
             x="102.5144"
             style="font-style:normal;font-weight:normal;font-size:13.30571079px;line-height:125%;font-family:Sans;letter-spacing:0px;word-spacing:0px;fill:#000000;fill-opacity:1;stroke:none;stroke-width:1px;stroke-linecap:butt;stroke-linejoin:miter;stroke-opacity:1"
             xml:space="preserve"><tspan
               y="-28.491631"
               x="102.5144"
               id="tspan4503-3"
               sodipodi:role="line">L<tspan
   id="tspan4552"
   style="font-size:86.48712039%;baseline-shift:sub">2</tspan></tspan></text>
          <text
             sodipodi:linespacing="125%"
             id="text4501-4"
             y="18.383152"
             x="161.3179"
             style="font-style:normal;font-weight:normal;font-size:13.30571079px;line-height:125%;font-family:Sans;letter-spacing:0px;word-spacing:0px;fill:#000000;fill-opacity:1;stroke:none;stroke-width:1px;stroke-linecap:butt;stroke-linejoin:miter;stroke-opacity:1"
             xml:space="preserve"><tspan
               y="18.383152"
               x="161.3179"
               id="tspan4503-9"
               sodipodi:role="line">L<tspan
   id="tspan4505-1"
   style="font-size:11.50772667px;baseline-shift:sub">1</tspan></tspan></text>
          <path
             inkscape:connector-curvature="0"
             id="path4554"
             d="m 67.157834,-16.218078 -17.13701,-7.392438"
             style="fill:none;fill-rule:evenodd;stroke:#000000;stroke-width:1.33057109;stroke-linecap:butt;stroke-linejoin:miter;stroke-opacity:1;stroke-miterlimit:4;stroke-dasharray:1.33057109,1.33057109;stroke-dashoffset:0" />
          <path
             inkscape:connector-curvature="0"
             id="path4556"
             d="M -4.7504298,-0.42514062 12.050566,-7.1455399"
             style="fill:none;fill-rule:evenodd;stroke:#000000;stroke-width:1.33057109;stroke-linecap:butt;stroke-linejoin:miter;stroke-opacity:1;stroke-miterlimit:4;stroke-dasharray:1.33057109,1.33057109;stroke-dashoffset:0" />
        </g>
      </g>
    </g>
  </g>
</svg>
