<?xml version="1.0" encoding="UTF-8" standalone="no"?>
<!-- Created with Inkscape (http://www.inkscape.org/) -->

<svg
   xmlns:dc="http://purl.org/dc/elements/1.1/"
   xmlns:cc="http://creativecommons.org/ns#"
   xmlns:rdf="http://www.w3.org/1999/02/22-rdf-syntax-ns#"
   xmlns:svg="http://www.w3.org/2000/svg"
   xmlns="http://www.w3.org/2000/svg"
   xmlns:xlink="http://www.w3.org/1999/xlink"
   xmlns:sodipodi="http://sodipodi.sourceforge.net/DTD/sodipodi-0.dtd"
   xmlns:inkscape="http://www.inkscape.org/namespaces/inkscape"
   width="210mm"
   height="297mm"
   viewBox="0 0 744.09448819 1052.3622047"
   id="svg2"
   version="1.1"
   inkscape:version="0.91 r13725"
   sodipodi:docname="ro-ccd-prodlouzeni.svg">
  <defs
     id="defs4">
    <marker
       inkscape:stockid="Arrow1Mend"
       orient="auto"
       refY="0.0"
       refX="0.0"
       id="marker4544"
       style="overflow:visible;"
       inkscape:isstock="true">
      <path
         id="path4297"
         d="M 0.0,0.0 L 5.0,-5.0 L -12.5,0.0 L 5.0,5.0 L 0.0,0.0 z "
         style="fill-rule:evenodd;stroke:#000000;stroke-width:1pt;stroke-opacity:1;fill:#000000;fill-opacity:1"
         transform="scale(0.4) rotate(180) translate(10,0)" />
    </marker>
    <marker
       inkscape:stockid="Arrow1Mend"
       orient="auto"
       refY="0.0"
       refX="0.0"
       id="marker6059"
       style="overflow:visible;"
       inkscape:isstock="true">
      <path
         id="path5812"
         d="M 0.0,0.0 L 5.0,-5.0 L -12.5,0.0 L 5.0,5.0 L 0.0,0.0 z "
         style="fill-rule:evenodd;stroke:#000000;stroke-width:1pt;stroke-opacity:1;fill:#000000;fill-opacity:1"
         transform="scale(0.4) rotate(180) translate(10,0)" />
    </marker>
    <linearGradient
       inkscape:collect="always"
       id="linearGradient8749">
      <stop
         style="stop-color:#ffffff;stop-opacity:1"
         offset="0"
         id="stop8751" />
      <stop
         style="stop-color:#737373;stop-opacity:1"
         offset="1"
         id="stop8753" />
    </linearGradient>
    <marker
       inkscape:stockid="Arrow2Mend"
       orient="auto"
       refY="0.0"
       refX="0.0"
       id="Arrow2Mend"
       style="overflow:visible;"
       inkscape:isstock="true">
      <path
         id="path4256"
         style="fill-rule:evenodd;stroke-width:0.625;stroke-linejoin:round;stroke:#000000;stroke-opacity:1;fill:#000000;fill-opacity:1"
         d="M 8.7185878,4.0337352 L -2.2072895,0.016013256 L 8.7185884,-4.0017078 C 6.9730900,-1.6296469 6.9831476,1.6157441 8.7185878,4.0337352 z "
         transform="scale(0.6) rotate(180) translate(0,0)" />
    </marker>
    <marker
       inkscape:stockid="Arrow1Mend"
       orient="auto"
       refY="0.0"
       refX="0.0"
       id="Arrow1Mend"
       style="overflow:visible;"
       inkscape:isstock="true">
      <path
         id="path4238"
         d="M 0.0,0.0 L 5.0,-5.0 L -12.5,0.0 L 5.0,5.0 L 0.0,0.0 z "
         style="fill-rule:evenodd;stroke:#000000;stroke-width:1pt;stroke-opacity:1;fill:#000000;fill-opacity:1"
         transform="scale(0.4) rotate(180) translate(10,0)" />
    </marker>
    <marker
       inkscape:isstock="true"
       style="overflow:visible;"
       id="marker6063"
       refX="0.0"
       refY="0.0"
       orient="auto"
       inkscape:stockid="Arrow1Lend">
      <path
         transform="scale(0.8) rotate(180) translate(12.5,0)"
         style="fill-rule:evenodd;stroke:#000000;stroke-width:1pt;stroke-opacity:1;fill:#000000;fill-opacity:1"
         d="M 0.0,0.0 L 5.0,-5.0 L -12.5,0.0 L 5.0,5.0 L 0.0,0.0 z "
         id="path6065" />
    </marker>
    <marker
       inkscape:stockid="Arrow1Lend"
       orient="auto"
       refY="0.0"
       refX="0.0"
       id="marker5551"
       style="overflow:visible;"
       inkscape:isstock="true">
      <path
         id="path5553"
         d="M 0.0,0.0 L 5.0,-5.0 L -12.5,0.0 L 5.0,5.0 L 0.0,0.0 z "
         style="fill-rule:evenodd;stroke:#0a5e00;stroke-width:1pt;stroke-opacity:1;fill:#0a5e00;fill-opacity:1"
         transform="scale(0.8) rotate(180) translate(12.5,0)" />
    </marker>
    <marker
       inkscape:isstock="true"
       style="overflow:visible;"
       id="marker4831"
       refX="0.0"
       refY="0.0"
       orient="auto"
       inkscape:stockid="Arrow1Lend"
       inkscape:collect="always">
      <path
         transform="scale(0.8) rotate(180) translate(12.5,0)"
         style="fill-rule:evenodd;stroke:#140073;stroke-width:1pt;stroke-opacity:1;fill:#140073;fill-opacity:1"
         d="M 0.0,0.0 L 5.0,-5.0 L -12.5,0.0 L 5.0,5.0 L 0.0,0.0 z "
         id="path4833" />
    </marker>
    <marker
       inkscape:stockid="Arrow1Lend"
       orient="auto"
       refY="0.0"
       refX="0.0"
       id="Arrow1Lend"
       style="overflow:visible;"
       inkscape:isstock="true"
       inkscape:collect="always">
      <path
         id="path4232"
         d="M 0.0,0.0 L 5.0,-5.0 L -12.5,0.0 L 5.0,5.0 L 0.0,0.0 z "
         style="fill-rule:evenodd;stroke:#6d0000;stroke-width:1pt;stroke-opacity:1;fill:#6d0000;fill-opacity:1"
         transform="scale(0.8) rotate(180) translate(12.5,0)" />
    </marker>
    <marker
       inkscape:stockid="Arrow2Mend"
       orient="auto"
       refY="0"
       refX="0"
       id="Arrow2Mend-8"
       style="overflow:visible"
       inkscape:isstock="true">
      <path
         inkscape:connector-curvature="0"
         id="path4256-6"
         style="fill:#000000;fill-opacity:1;fill-rule:evenodd;stroke:#000000;stroke-width:0.625;stroke-linejoin:round;stroke-opacity:1"
         d="M 8.7185878,4.0337352 -2.2072895,0.01601326 8.7185884,-4.0017078 c -1.7454984,2.3720609 -1.7354408,5.6174519 -6e-7,8.035443 z"
         transform="scale(-0.6,-0.6)" />
    </marker>
    <marker
       inkscape:stockid="Arrow2Mend"
       orient="auto"
       refY="0"
       refX="0"
       id="Arrow2Mend-2"
       style="overflow:visible"
       inkscape:isstock="true">
      <path
         inkscape:connector-curvature="0"
         id="path4256-4"
         style="fill:#000000;fill-opacity:1;fill-rule:evenodd;stroke:#000000;stroke-width:0.625;stroke-linejoin:round;stroke-opacity:1"
         d="M 8.7185878,4.0337352 -2.2072895,0.01601326 8.7185884,-4.0017078 c -1.7454984,2.3720609 -1.7354408,5.6174519 -6e-7,8.035443 z"
         transform="scale(-0.6,-0.6)" />
    </marker>
    <radialGradient
       inkscape:collect="always"
       xlink:href="#linearGradient8749"
       id="radialGradient8755"
       cx="310.33362"
       cy="284.10208"
       fx="310.33362"
       fy="284.10208"
       r="7.5710678"
       gradientUnits="userSpaceOnUse"
       gradientTransform="matrix(0.77439422,-0.42374772,0.40700342,0.74379421,-45.366539,204.5569)" />
    <radialGradient
       inkscape:collect="always"
       xlink:href="#linearGradient8749"
       id="radialGradient8755-8"
       cx="310.33362"
       cy="284.10208"
       fx="310.33362"
       fy="284.10208"
       r="7.5710678"
       gradientUnits="userSpaceOnUse"
       gradientTransform="matrix(0.77439422,-0.42374772,0.40700342,0.74379421,-51.080209,43.34287)" />
    <radialGradient
       inkscape:collect="always"
       xlink:href="#linearGradient8749"
       id="radialGradient8755-4"
       cx="310.33362"
       cy="284.10208"
       fx="310.33362"
       fy="284.10208"
       r="7.5710678"
       gradientUnits="userSpaceOnUse"
       gradientTransform="matrix(0.67107243,-0.36721014,0.35269991,0.64455516,113.24519,43.569424)" />
  </defs>
  <sodipodi:namedview
     id="base"
     pagecolor="#ffffff"
     bordercolor="#666666"
     borderopacity="1.0"
     inkscape:pageopacity="0.0"
     inkscape:pageshadow="2"
     inkscape:zoom="1.4"
     inkscape:cx="501.67684"
     inkscape:cy="920.54328"
     inkscape:document-units="px"
     inkscape:current-layer="layer1"
     showgrid="false"
     inkscape:window-width="1920"
     inkscape:window-height="1018"
     inkscape:window-x="-8"
     inkscape:window-y="-8"
     inkscape:window-maximized="1"
     showguides="true"
     inkscape:guide-bbox="true" />
  <metadata
     id="metadata7">
    <rdf:RDF>
      <cc:Work
         rdf:about="">
        <dc:format>image/svg+xml</dc:format>
        <dc:type
           rdf:resource="http://purl.org/dc/dcmitype/StillImage" />
        <dc:title></dc:title>
      </cc:Work>
    </rdf:RDF>
  </metadata>
  <g
     inkscape:label="Layer 1"
     inkscape:groupmode="layer"
     id="layer1">
    <text
       xml:space="preserve"
       style="font-style:normal;font-weight:normal;font-size:17.5px;line-height:125%;font-family:Sans;letter-spacing:0px;word-spacing:0px;fill:#000000;fill-opacity:1;stroke:none;stroke-width:1px;stroke-linecap:butt;stroke-linejoin:miter;stroke-opacity:1"
       x="263.64981"
       y="308.88992"
       id="text6015"
       sodipodi:linespacing="125%"><tspan
         sodipodi:role="line"
         id="tspan6017"
         x="263.64981"
         y="308.88992" /></text>
    <g
       id="g4801">
      <path
         style="fill:none;fill-rule:evenodd;stroke:#000000;stroke-width:1;stroke-linecap:butt;stroke-linejoin:miter;stroke-miterlimit:4;stroke-dasharray:none;stroke-dashoffset:0;stroke-opacity:1;marker-end:url(#marker4544)"
         d="M 311.42857,288.0765 508.44453,137.955"
         id="path4282"
         inkscape:connector-curvature="0"
         sodipodi:nodetypes="cc" />
      <path
         sodipodi:nodetypes="cc"
         inkscape:connector-curvature="0"
         id="path4337"
         d="M 311.42857,288.0765 534.07651,190.21245"
         style="fill:none;fill-rule:evenodd;stroke:#000000;stroke-width:1;stroke-linecap:butt;stroke-linejoin:miter;stroke-miterlimit:4;stroke-dasharray:none;stroke-dashoffset:0;stroke-opacity:1;marker-end:url(#Arrow1Mend)" />
      <circle
         r="7.0710678"
         cy="285.75113"
         cx="311.78989"
         id="path4211"
         style="opacity:0.89800002;fill:url(#radialGradient8755);fill-opacity:1;fill-rule:nonzero;stroke:#6f6f6f;stroke-width:1;stroke-linecap:square;stroke-linejoin:bevel;stroke-miterlimit:4;stroke-dasharray:none;stroke-dashoffset:0;stroke-opacity:1" />
      <g
         transform="translate(0,-0.7142857)"
         style="stroke:#797979;stroke-opacity:1"
         id="g8698">
        <path
           style="fill:#f9f9f9;fill-rule:evenodd;stroke:#797979;stroke-width:1px;stroke-linecap:butt;stroke-linejoin:miter;stroke-opacity:1"
           d="m 305.46962,125.38249 11.06731,145.91033 -28.23508,-1.9495 z"
           id="path4151-1"
           inkscape:connector-curvature="0"
           inkscape:transform-center-x="9.1131341"
           inkscape:transform-center-y="-85.288392" />
        <path
           style="fill:#b3b3b3;fill-rule:evenodd;stroke:#797979;stroke-width:1px;stroke-linecap:butt;stroke-linejoin:miter;stroke-opacity:1"
           d="m 333.95179,264.29152 -28.48217,-138.90903 11.0757,145.65793 z"
           id="path4153-3"
           inkscape:connector-curvature="0"
           inkscape:transform-center-x="-5.6603459"
           inkscape:transform-center-y="-85.414662" />
        <path
           sodipodi:nodetypes="cccc"
           style="fill:#666666;fill-rule:evenodd;stroke:#797979;stroke-width:1px;stroke-linecap:butt;stroke-linejoin:miter;stroke-opacity:1"
           d="m 311.10918,283.72187 23.09502,-19.42196 -17.91127,6.73211 z"
           id="path4155-9"
           inkscape:connector-curvature="0"
           inkscape:transform-center-x="-11.342456"
           inkscape:transform-center-y="-10.158292" />
        <path
           sodipodi:nodetypes="cccc"
           style="fill:#cccccc;fill-rule:evenodd;stroke:#797979;stroke-width:1px;stroke-linecap:butt;stroke-linejoin:miter;stroke-opacity:1"
           d="m 288.09542,269.41888 22.98233,14.07363 5.21517,-12.46049 z"
           id="path4157-1"
           inkscape:connector-curvature="0"
           inkscape:transform-center-x="9.2394041"
           inkscape:transform-center-y="-7.1278371" />
      </g>
      <path
         inkscape:transform-center-y="1.0714286"
         inkscape:transform-center-x="-28.3757"
         sodipodi:nodetypes="cc"
         inkscape:connector-curvature="0"
         id="path4223"
         d="m 320.76404,287.63612 38.3858,0"
         style="opacity:0.61299995;fill:none;fill-rule:evenodd;stroke:#6d0000;stroke-width:1px;stroke-linecap:butt;stroke-linejoin:miter;stroke-opacity:1;marker-end:url(#Arrow1Lend)" />
      <path
         inkscape:transform-center-y="19.505155"
         inkscape:transform-center-x="9.846281"
         sodipodi:nodetypes="cc"
         style="opacity:0.61699997;fill:none;fill-rule:evenodd;stroke:#140073;stroke-width:1px;stroke-linecap:butt;stroke-linejoin:miter;stroke-opacity:1;marker-end:url(#marker4831)"
         d="M 307.45102,294.03025 296.007,317.5237"
         id="path4829"
         inkscape:connector-curvature="0" />
      <text
         sodipodi:linespacing="125%"
         id="text8757"
         y="280.98309"
         x="337.48126"
         style="font-style:normal;font-weight:normal;font-size:15px;line-height:125%;font-family:Sans;letter-spacing:0px;word-spacing:0px;opacity:0.61299995;fill:#000000;fill-opacity:1;stroke:none;stroke-width:1px;stroke-linecap:butt;stroke-linejoin:miter;stroke-opacity:1"
         xml:space="preserve"><tspan
           y="280.98309"
           x="337.48126"
           id="tspan8759"
           sodipodi:role="line">x</tspan></text>
      <text
         sodipodi:linespacing="125%"
         id="text8761"
         y="315.79276"
         x="286.71619"
         style="font-style:normal;font-weight:normal;font-size:15px;line-height:125%;font-family:Sans;letter-spacing:0px;word-spacing:0px;opacity:0.61699997;fill:#000000;fill-opacity:1;stroke:none;stroke-width:1px;stroke-linecap:butt;stroke-linejoin:miter;stroke-opacity:1"
         xml:space="preserve"><tspan
           y="315.79276"
           x="286.71619"
           id="tspan8763"
           sodipodi:role="line">z</tspan></text>
      <text
         sodipodi:linespacing="125%"
         id="text8765"
         y="245.08824"
         x="295.7807"
         style="font-style:normal;font-weight:normal;font-size:15px;line-height:125%;font-family:Sans;letter-spacing:0px;word-spacing:0px;fill:#000000;fill-opacity:1;stroke:none;stroke-width:1px;stroke-linecap:butt;stroke-linejoin:miter;stroke-opacity:1"
         xml:space="preserve"><tspan
           y="245.08824"
           x="295.7807"
           id="tspan8767"
           sodipodi:role="line">y</tspan></text>
      <path
         sodipodi:nodetypes="cc"
         inkscape:connector-curvature="0"
         id="path4268"
         d="M 533.57143,190.21935 308.30741,208.39519"
         style="fill:none;fill-rule:evenodd;stroke:#000000;stroke-width:1;stroke-linecap:butt;stroke-linejoin:miter;stroke-miterlimit:4;stroke-dasharray:1, 3;stroke-dashoffset:0;stroke-opacity:1" />
      <circle
         cx="509.14282"
         cy="137.64792"
         r="2.4207766"
         id="path4266-3-4"
         style="opacity:1;fill:#000000;fill-opacity:1;fill-rule:nonzero;stroke:none;stroke-width:1;stroke-linecap:square;stroke-linejoin:bevel;stroke-miterlimit:4;stroke-dasharray:none;stroke-dashoffset:0;stroke-opacity:1" />
      <text
         sodipodi:linespacing="125%"
         id="text4317"
         y="133.57649"
         x="503.99997"
         style="font-style:normal;font-weight:normal;font-size:15px;line-height:125%;font-family:Sans;letter-spacing:0px;word-spacing:0px;fill:#000000;fill-opacity:1;stroke:none;stroke-width:1px;stroke-linecap:butt;stroke-linejoin:miter;stroke-opacity:1"
         xml:space="preserve"><tspan
           y="133.57649"
           x="503.99997"
           id="tspan4319"
           sodipodi:role="line">A</tspan></text>
      <text
         sodipodi:linespacing="125%"
         id="text4321"
         y="190.36221"
         x="538.21423"
         style="font-style:normal;font-weight:normal;font-size:15px;line-height:125%;font-family:Sans;letter-spacing:0px;word-spacing:0px;fill:#000000;fill-opacity:1;stroke:none;stroke-width:1px;stroke-linecap:butt;stroke-linejoin:miter;stroke-opacity:1"
         xml:space="preserve"><tspan
           y="190.36221"
           x="538.21423"
           id="tspan4323"
           sodipodi:role="line">X</tspan></text>
      <text
         sodipodi:linespacing="125%"
         id="text6103"
         y="291.21228"
         x="289.40869"
         style="font-style:normal;font-weight:normal;font-size:15px;line-height:125%;font-family:Sans;letter-spacing:0px;word-spacing:0px;fill:#000000;fill-opacity:1;stroke:none;stroke-width:1px;stroke-linecap:butt;stroke-linejoin:miter;stroke-opacity:1"
         xml:space="preserve"><tspan
           y="291.21228"
           x="289.40869"
           id="tspan6105"
           sodipodi:role="line">O</tspan></text>
      <circle
         r="7.0710678"
         cy="124.5371"
         cx="306.07623"
         id="path4211-3"
         style="opacity:1;fill:url(#radialGradient8755-8);fill-opacity:1;fill-rule:nonzero;stroke:#6f6f6f;stroke-width:1;stroke-linecap:square;stroke-linejoin:bevel;stroke-miterlimit:4;stroke-dasharray:none;stroke-dashoffset:0;stroke-opacity:1" />
      <g
         style="stroke:#797979;stroke-opacity:1"
         id="g8698-7"
         transform="matrix(0.02639666,1.0012936,-0.74117254,0.0356608,509.44898,-196.89275)">
        <path
           style="fill:#f9f9f9;fill-rule:evenodd;stroke:#797979;stroke-width:1px;stroke-linecap:butt;stroke-linejoin:miter;stroke-opacity:1"
           d="m 305.46962,125.38249 11.06731,145.91033 -28.23508,-1.9495 z"
           id="path4151-1-1"
           inkscape:connector-curvature="0"
           inkscape:transform-center-x="9.1131341"
           inkscape:transform-center-y="-85.288392" />
        <path
           style="fill:#7c7c7c;fill-opacity:1;fill-rule:evenodd;stroke:#797979;stroke-width:1px;stroke-linecap:butt;stroke-linejoin:miter;stroke-opacity:1"
           d="m 333.95179,264.29152 -28.48217,-138.90903 11.0757,145.65793 z"
           id="path4153-3-8"
           inkscape:connector-curvature="0"
           inkscape:transform-center-x="-5.6603459"
           inkscape:transform-center-y="-85.414662" />
        <path
           sodipodi:nodetypes="cccc"
           style="fill:#9b9b9b;fill-opacity:1;fill-rule:evenodd;stroke:#797979;stroke-width:1px;stroke-linecap:butt;stroke-linejoin:bevel;stroke-opacity:1"
           d="m 311.10918,283.72187 23.09502,-19.42196 -17.91127,6.73211 z"
           id="path4155-9-7"
           inkscape:connector-curvature="0"
           inkscape:transform-center-x="-11.342456"
           inkscape:transform-center-y="-10.158292" />
        <path
           sodipodi:nodetypes="cccc"
           style="fill:#cccccc;fill-rule:evenodd;stroke:#797979;stroke-width:1px;stroke-linecap:butt;stroke-linejoin:miter;stroke-opacity:1"
           d="m 288.09542,269.41888 22.98233,14.07363 5.21517,-12.46049 z"
           id="path4157-1-0"
           inkscape:connector-curvature="0"
           inkscape:transform-center-x="9.2394041"
           inkscape:transform-center-y="-7.1278371" />
      </g>
      <circle
         r="6.1276264"
         cy="113.9305"
         cx="422.74884"
         id="path4211-2"
         style="opacity:1;fill:url(#radialGradient8755-4);fill-opacity:1;fill-rule:nonzero;stroke:#6f6f6f;stroke-width:0.86657727;stroke-linecap:square;stroke-linejoin:bevel;stroke-miterlimit:4;stroke-dasharray:none;stroke-dashoffset:0;stroke-opacity:1" />
      <circle
         r="2.4207766"
         cy="287.67673"
         cx="312.13715"
         id="path4266-3-4-2-0"
         style="opacity:1;fill:#000000;fill-opacity:1;fill-rule:nonzero;stroke:none;stroke-width:1;stroke-linecap:square;stroke-linejoin:bevel;stroke-miterlimit:4;stroke-dasharray:none;stroke-dashoffset:0;stroke-opacity:1" />
      <path
         sodipodi:nodetypes="cc"
         inkscape:transform-center-y="14.712122"
         inkscape:transform-center-x="-111.25964"
         style="fill:none;fill-rule:evenodd;stroke:#000000;stroke-width:1;stroke-linecap:butt;stroke-linejoin:miter;stroke-miterlimit:4;stroke-dasharray:3, 1;stroke-dashoffset:0;stroke-opacity:1"
         d="M 313.30332,324.42184 302.26339,45.476042"
         id="path6068"
         inkscape:connector-curvature="0" />
      <path
         inkscape:connector-curvature="0"
         id="path5549"
         d="m 311.63206,276.05998 -2.52538,-58.33632"
         style="fill:none;fill-rule:evenodd;stroke:#0a5e00;stroke-width:1px;stroke-linecap:butt;stroke-linejoin:miter;stroke-opacity:1;marker-end:url(#marker5551)"
         sodipodi:nodetypes="cc" />
      <path
         style="fill:none;fill-rule:evenodd;stroke:#000000;stroke-width:1;stroke-linecap:butt;stroke-linejoin:miter;stroke-miterlimit:4;stroke-dasharray:1, 3;stroke-dashoffset:0;stroke-opacity:1"
         d="m 307.29726,153.85386 201.22957,-16.4043"
         id="path4280"
         inkscape:connector-curvature="0"
         sodipodi:nodetypes="cc" />
      <g
         inkscape:transform-center-y="34.225658"
         inkscape:transform-center-x="-55.741952"
         style="stroke:#797979;stroke-opacity:1"
         id="g8698-7-1"
         transform="matrix(-0.50780283,0.69100519,-0.68670286,-0.51098432,775.42264,43.480161)">
        <path
           style="fill:#eaeaea;fill-opacity:1;fill-rule:evenodd;stroke:#797979;stroke-width:1px;stroke-linecap:butt;stroke-linejoin:miter;stroke-opacity:1"
           d="m 305.46962,125.38249 11.06731,145.91033 -28.23508,-1.9495 z"
           id="path4151-1-1-7"
           inkscape:connector-curvature="0"
           inkscape:transform-center-x="9.1131341"
           inkscape:transform-center-y="-85.288392" />
        <path
           style="fill:#8d8d8d;fill-opacity:1;fill-rule:evenodd;stroke:#797979;stroke-width:1px;stroke-linecap:butt;stroke-linejoin:miter;stroke-opacity:1"
           d="m 333.95179,264.29152 -28.48217,-138.90903 11.0757,145.65793 z"
           id="path4153-3-8-5"
           inkscape:connector-curvature="0"
           inkscape:transform-center-x="-5.6603459"
           inkscape:transform-center-y="-85.414662" />
        <path
           sodipodi:nodetypes="cccc"
           style="fill:#a5a5a5;fill-opacity:1;fill-rule:evenodd;stroke:#797979;stroke-width:1px;stroke-linecap:butt;stroke-linejoin:miter;stroke-opacity:1"
           d="m 311.10918,283.72187 23.09502,-19.42196 -17.91127,6.73211 z"
           id="path4155-9-7-2"
           inkscape:connector-curvature="0"
           inkscape:transform-center-x="-11.342456"
           inkscape:transform-center-y="-10.158292" />
        <path
           sodipodi:nodetypes="cccc"
           style="fill:#ffffff;fill-opacity:1;fill-rule:evenodd;stroke:#797979;stroke-width:1px;stroke-linecap:butt;stroke-linejoin:miter;stroke-opacity:1"
           d="m 288.09542,269.41888 22.98233,14.07363 5.21517,-12.46049 z"
           id="path4157-1-0-2"
           inkscape:connector-curvature="0"
           inkscape:transform-center-x="9.2394041"
           inkscape:transform-center-y="-7.1278371" />
      </g>
      <circle
         r="2.4207766"
         cy="190.70209"
         cx="533.8656"
         id="path4266"
         style="opacity:1;fill:#000000;fill-opacity:1;fill-rule:nonzero;stroke:none;stroke-width:1;stroke-linecap:square;stroke-linejoin:bevel;stroke-miterlimit:4;stroke-dasharray:none;stroke-dashoffset:0;stroke-opacity:1" />
      <text
         sodipodi:linespacing="125%"
         id="text4317-9"
         y="159.25832"
         x="287.65875"
         style="font-style:normal;font-weight:normal;font-size:15px;line-height:125%;font-family:Sans;letter-spacing:0px;word-spacing:0px;fill:#000000;fill-opacity:1;stroke:none;stroke-width:1px;stroke-linecap:butt;stroke-linejoin:miter;stroke-opacity:1"
         xml:space="preserve"><tspan
           y="159.25832"
           x="287.65875"
           id="tspan4319-6"
           sodipodi:role="line">A'</tspan></text>
      <text
         sodipodi:linespacing="125%"
         id="text4321-6"
         y="211.04402"
         x="287.30161"
         style="font-style:normal;font-weight:normal;font-size:15px;line-height:125%;font-family:Sans;letter-spacing:0px;word-spacing:0px;fill:#000000;fill-opacity:1;stroke:none;stroke-width:1px;stroke-linecap:butt;stroke-linejoin:miter;stroke-opacity:1"
         xml:space="preserve"><tspan
           y="211.04402"
           x="287.30161"
           id="tspan4323-2"
           sodipodi:role="line">X'</tspan></text>
      <circle
         cx="306.78571"
         cy="153.79079"
         r="2.4207766"
         id="path4266-3-4-9"
         style="opacity:1;fill:#000000;fill-opacity:1;fill-rule:nonzero;stroke:none;stroke-width:1;stroke-linecap:square;stroke-linejoin:bevel;stroke-miterlimit:4;stroke-dasharray:none;stroke-dashoffset:0;stroke-opacity:1" />
      <circle
         cx="308.92856"
         cy="208.43364"
         r="2.4207766"
         id="path4266-3-4-4"
         style="opacity:1;fill:#000000;fill-opacity:1;fill-rule:nonzero;stroke:none;stroke-width:1;stroke-linecap:square;stroke-linejoin:bevel;stroke-miterlimit:4;stroke-dasharray:none;stroke-dashoffset:0;stroke-opacity:1" />
    </g>
  </g>
</svg>
