\begin{thebibliography}{}

\bibitem[Amenta et~al., 2000]{Amenta00}
Amenta, N., Choi, S., and Kolluri, R.~K. (2000).
\newblock The power crust, unions of balls, and the medial axis transform.
\newblock {\em Computational Geometry: Theory and Applications}, 19:127--153.

\bibitem[Au et~al., 2008]{Au2008}
Au, O. K.-C., Tai, C.-L., Chu, H.-K., Cohen-Or, D., and Lee, T.-Y. (2008).
\newblock Skeleton extraction by mesh contraction.
\newblock {\em ACM Transactions on Graphics}, 27(3):1--1722.

\bibitem[Ma and Choi, 2014]{Ma2014}
Ma, J. and Choi, S. (2014).
\newblock Kinematic skeleton extraction from 3d articulated models.
\newblock {\em Computer-Aided Design}, 46:221--226.

\bibitem[Rodriguez et~al., 2009]{Rodriguez2009}
Rodriguez, A., Ehlenberger, D.~B., Hof, P.~R., and Wearne, S.~L. (2009).
\newblock Three-dimensional neuron tracing by voxel scooping.
\newblock {\em Journal of Neuroscience Methods}, 184(1):169--175.

\bibitem[Straka et~al., 2011]{Straka2011}
Straka, M., Hauswiesner, S., R\"{u}ther, M., and Bischof, H. (2011).
\newblock Skeletal graph based human pose estimation in real-time.
\newblock In {\em Proceedings of the British Machine Vision Conference}. BMVA
  Press.

\end{thebibliography}
