\relax 
\citation{Amenta00}
\citation{Au2008}
\citation{Straka2011}
\citation{Rodriguez2009}
\citation{Ma2014}
\newlabel{sec:introduction}{{1}{1}}
\citation{Au2008}
\citation{Au2008}
\newlabel{eq:me-smrsteni}{{1}{2}}
\providecommand*\caption@xref[2]{\@setref\relax\@undefined{#1}}
\newlabel{fig:me-contraction}{{1}{2}}
\citation{Straka2011}
\newlabel{fig:ppm-removing-branches}{{2}{3}}
\bibstyle{apalike}
\bibdata{clanek}
\bibcite{Amenta00}{Amenta et\nobreakspace  {}al., 2000}
\bibcite{Au2008}{Au et\nobreakspace  {}al., 2008}
\bibcite{Ma2014}{Ma and Choi, 2014}
\bibcite{Rodriguez2009}{Rodriguez et\nobreakspace  {}al., 2009}
\bibcite{Straka2011}{Straka et\nobreakspace  {}al., 2011}
\newlabel{sec:conclusion}{{7}{4}}
\newlabel{sec:conclusion}{{8}{4}}
