\relax 
\catcode`"\active
\catcode`-\active
\citation{Au2008}
\citation{Straka2011}
\select@language{czech}
\@writefile{toc}{\select@language{czech}}
\@writefile{lof}{\select@language{czech}}
\@writefile{lot}{\select@language{czech}}
\@writefile{toc}{\contentsline {section}{\numberline {1}\'Uvod}{1}}
\@writefile{toc}{\contentsline {section}{\numberline {2}Princip metody}{1}}
\bibcite{Au2008}{{1}{2008}{{Au~et~al.}}{{}}}
\bibcite{Straka2011}{{2}{2011}{{Straka~et~al.}}{{}}}
\@writefile{toc}{\contentsline {section}{\numberline {3}V\'ysledky}{2}}
\@writefile{lof}{\contentsline {figure}{\numberline {1}{\ignorespaces Uk\'azka v\'ysledk\r u metody.\relax }}{2}}
\providecommand*\caption@xref[2]{\@setref\relax\@undefined{#1}}
\newlabel{fig:ukazka}{{1}{2}}
